1 7 $1938
2 2 $1205
3 5 $1043
4 1 $1405
5 1 $1169
6 3 $1568
7 1 $1316
8 5 $1701
9 7 $1836
10 5 $1200
11 6 $1824
12 7 $1138
13 4 $1121
14 3 $1515
15 2 $1570
16 6 $1303
17 3 $1331
18 6 $1647
19 5 $1407
20 3 $1018
21 7 $1818
22 2 $1227
23 3 $1735
24 5 $1301
25 5 $1680
26 2 $1116
27 5 $1983
28 5 $1094
29 3 $1182
30 4 $1002
31 1 $1194
32 3 $1719
33 2 $1877
34 1 $1160
35 4 $1387
36 2 $1886
37 3 $1453
38 3 $1479
39 5 $1181
40 7 $1486
41 5 $1281
42 5 $1643
43 1 $1347
44 4 $1485
45 6 $1520
46 4 $1812
47 7 $1016
48 6 $1068
49 2 $1022
50 4 $1303
51 4 $1960
52 2 $1874
53 3 $1089
54 1 $1691
55 3 $1293
56 1 $1489
57 6 $1949
58 6 $1612
59 2 $1644
60 5 $1335
61 2 $1632
62 4 $1204
63 3 $1813
64 2 $1966
65 5 $1103
66 3 $1412
67 3 $1838
68 5 $1005
69 4 $1863
70 7 $1703
71 5 $1145
72 2 $1237
73 7 $1277
74 6 $1168
75 7 $1801
76 2 $1436
77 3 $1062
78 2 $1439
79 5 $1793
80 5 $1654
81 2 $1575
82 3 $1136
83 6 $1237
84 6 $1999
85 6 $1567
86 1 $1508
87 2 $1151
88 7 $1050
89 4 $1048
90 5 $1694
91 4 $1555
92 6 $1437
93 5 $1242
94 3 $1863
95 4 $1204
96 1 $1066
97 4 $1248
98 2 $1666
99 6 $1341
100 5 $1736
101 2 $1041
102 6 $1569
103 4 $1856
104 6 $1248
105 7 $1864
106 5 $1190
107 6 $1074
108 2 $1449
109 6 $1028
110 2 $1899
111 1 $1261
112 6 $1605
113 1 $1048
114 2 $1043
115 4 $1837
116 6 $1025
117 3 $1548
118 3 $1966
119 6 $1148
120 2 $1008
121 5 $1747
122 1 $1201
123 1 $1566
124 4 $1744
125 3 $1787
126 1 $1747
127 2 $1685
128 7 $1756
129 4 $1792
130 7 $1545
131 3 $1918
132 5 $1137
133 1 $1170
134 6 $1019
135 5 $1578
136 7 $1969
137 6 $1770
138 3 $1814
139 3 $1671
140 7 $1291
141 2 $1617
142 5 $1152
143 1 $1164
144 7 $1313
145 6 $1880
146 2 $1302
147 7 $1744
148 7 $1736
149 7 $1409
150 2 $1665
151 6 $1740
152 2 $1700
153 3 $1429
154 2 $1661
155 2 $1836
156 4 $1985
157 7 $1124
158 1 $1169
159 4 $1658
160 3 $1619
161 3 $1832
162 5 $1986
163 2 $1979
164 7 $1183
165 1 $1122
166 5 $1615
167 5 $1960
168 7 $1695
169 2 $1572
170 2 $1686
171 3 $1710
172 7 $1882
173 3 $1877
174 4 $1702
175 6 $1863
176 1 $1554
177 2 $1824
178 1 $1811
179 4 $1791
180 2 $1765
181 3 $1981
182 2 $1894
183 7 $1767
184 6 $1148
185 3 $1630
186 1 $1914
187 5 $1446
188 4 $1271
189 1 $1259
190 3 $1128
191 2 $1211
192 3 $1623
193 1 $1615
194 7 $1075
195 7 $1083
196 6 $1698
197 1 $1313
198 4 $1069
199 2 $1497
200 3 $1411
201 2 $1693
202 7 $1376
203 4 $1697
204 5 $1295
205 2 $1776
206 5 $1974
207 4 $1869
208 3 $1025
209 5 $1087
210 1 $1850
211 3 $1729
212 5 $1127
213 7 $1104
214 1 $1020
215 1 $1454
216 3 $1995
217 3 $1199
218 7 $1953
219 7 $1090
220 3 $1098
221 3 $1050
222 3 $1472
223 2 $1742
224 2 $1120
225 7 $1238
226 6 $1286
227 2 $1103
228 4 $1123
229 5 $1384
230 1 $1939
231 5 $1142
232 3 $1876
233 2 $1477
234 6 $1299
235 7 $1520
236 4 $1449
237 4 $1594
238 7 $1006
239 4 $1006
240 5 $1965
241 6 $1189
242 3 $1313
243 4 $1622
244 5 $1222
245 4 $1610
246 3 $1563
247 2 $1104
248 5 $1958
249 7 $1438
250 7 $1152
251 2 $1850
252 3 $1579
253 4 $1504
254 7 $1201
255 4 $1805
256 2 $1311
257 7 $1179
258 4 $1706
259 3 $1365
260 4 $1816
261 3 $1286
262 1 $1939
263 5 $1853
264 5 $1305
265 5 $1884
266 2 $1024
267 5 $1681
268 5 $1880
269 3 $1764
270 5 $1225
271 5 $1554
272 1 $1070
273 5 $1570
274 4 $1482
275 4 $1454
276 7 $1298
277 1 $1108
278 4 $1659
279 7 $1173
280 1 $1446
281 2 $1965
282 2 $1273
283 3 $1885
284 4 $1441
285 7 $1246
286 6 $1628
287 1 $1103
288 5 $1315
289 4 $1304
290 4 $1271
291 6 $1511
292 6 $1452
293 3 $1355
294 3 $1628
295 5 $1816
296 1 $1533
297 5 $1723
298 3 $1733
299 1 $1070
300 7 $1276
301 4 $1869
302 2 $1668
303 3 $1338
304 4 $1349
305 7 $1750
306 1 $1252
307 4 $1593
308 5 $1756
309 5 $1429
310 3 $1061
311 7 $1270
312 5 $1180
313 4 $1780
314 1 $1156
315 1 $1043
316 3 $1795
317 5 $1746
318 5 $1752
319 5 $1652
320 4 $1100
321 5 $1092
322 7 $1606
323 3 $1564
324 1 $1620
325 3 $1312
326 7 $1950
327 4 $1294
328 5 $1701
329 4 $1185
330 7 $1996
331 1 $1422
332 5 $1406
333 6 $1574
334 3 $1760
335 4 $1637
336 7 $1960
337 7 $1170
338 5 $1135
339 4 $1256
340 7 $1379
341 4 $1413
342 3 $1904
343 2 $1849
344 6 $1567
345 6 $1801
346 3 $1559
347 2 $1253
348 5 $1140
349 7 $1166
350 2 $1421
351 4 $1156
352 3 $1250
353 5 $1407
354 1 $1414
355 7 $1469
356 3 $1529
357 5 $1491
358 3 $1002
359 1 $1935
360 1 $1411
361 7 $1382
362 2 $1460
363 6 $1625
364 1 $1725
365 2 $1461
366 3 $1006
367 6 $1043
368 4 $1449
369 3 $1117
370 5 $1563
371 1 $1274
372 6 $1031
373 2 $1892
374 1 $1940
375 3 $1984
376 1 $1328
377 7 $1030
378 4 $1092
379 5 $1594
380 1 $1817
381 5 $1746
382 3 $1867
383 7 $1400
384 2 $1734
385 5 $1962
386 5 $1015
387 5 $1248
388 1 $1772
389 5 $1614
390 6 $1190
391 6 $1236
392 3 $1342
393 5 $1738
394 6 $1694
395 2 $1951
396 6 $1769
397 5 $1196
398 5 $1365
399 6 $1068
400 1 $1208
401 2 $1495
402 5 $1281
403 1 $1400
404 2 $1264
405 2 $1011
406 1 $1305
407 3 $1898
408 1 $1869
409 2 $1850
410 4 $1282
411 4 $1994
412 2 $1324
413 2 $1340
414 3 $1939
415 4 $1087
416 4 $1903
417 7 $1620
418 1 $1649
419 3 $1543
420 4 $1020
421 5 $1785
422 7 $1612
423 4 $1380
424 2 $1790
425 4 $1830
426 5 $1648
427 5 $1521
428 1 $1458
429 7 $1826
430 6 $1109
431 1 $1537
432 4 $1779
433 5 $1128
434 1 $1952
435 7 $1464
436 4 $1943
437 2 $1528
438 2 $1520
439 7 $1896
440 5 $1912
441 6 $1261
442 4 $1201
443 1 $1533
444 6 $1772
445 4 $1958
446 4 $1636
447 6 $1233
448 2 $1725
449 6 $1629
450 3 $1869
451 7 $1914
452 1 $1865
453 4 $1186
454 4 $1211
455 1 $1863
456 6 $1971
457 4 $1617
458 5 $1356
459 2 $1070
460 5 $1097
461 7 $1319
462 1 $1895
463 3 $1729
464 1 $1556
465 2 $1153
466 5 $1088
467 6 $1684
468 2 $1083
469 2 $1590
470 6 $1952
471 7 $1968
472 1 $1864
473 4 $1184
474 4 $1610
475 7 $1908
476 6 $1889
477 1 $1454
478 7 $1270
479 6 $1543
480 1 $1552
481 2 $1085
482 3 $1914
483 6 $1767
484 6 $1284
485 1 $1691
486 4 $1316
487 6 $1101
488 4 $1182
489 3 $1907
490 6 $1769
491 6 $1254
492 6 $1605
493 3 $1724
494 1 $1762
495 4 $1236
496 5 $1850
497 1 $1161
498 5 $1122
499 2 $1427
500 7 $1852
501 4 $1258
502 4 $1889
503 7 $1420
504 2 $1213
505 4 $1849
506 2 $1651
507 2 $1662
508 2 $1555
509 3 $1607
510 6 $1610
511 3 $1568
512 4 $1585
513 3 $1469
514 4 $1104
515 4 $1128
516 2 $1332
517 1 $1251
518 6 $1102
519 5 $1591
520 6 $1870
521 6 $1428
522 6 $1920
523 4 $1578
524 6 $1286
525 5 $1471
526 3 $1902
527 1 $1802
528 3 $1053
529 4 $1520
530 7 $1028
531 1 $1141
532 3 $1499
533 7 $1678
534 6 $1931
535 7 $1476
536 4 $1064
537 7 $1178
538 2 $1782
539 3 $1259
540 4 $1731
541 2 $1270
542 3 $1734
543 4 $1708
544 5 $1943
545 5 $1644
546 2 $1911
547 2 $1939
548 4 $1985
549 3 $1202
550 1 $1665
551 5 $1979
552 7 $1099
553 5 $1989
554 6 $1991
555 6 $1160
556 1 $1292
557 1 $1610
558 3 $1819
559 4 $1788
560 6 $1942
561 6 $1055
562 5 $1008
563 5 $1963
564 7 $1654
565 3 $1608
566 3 $1367
567 6 $1974
568 7 $1208
569 6 $1403
570 6 $1379
571 6 $1011
572 6 $1296
573 3 $1453
574 7 $1876
575 7 $1051
576 2 $1594
577 2 $1322
578 5 $1424
579 6 $1459
580 1 $1299
581 4 $1033
582 2 $1181
583 5 $1067
584 3 $1550
585 1 $1549
586 3 $1320
587 4 $1506
588 4 $1464
589 7 $1341
590 3 $1706
591 5 $1705
592 4 $1675
593 4 $1668
594 5 $1805
595 1 $1339
596 3 $1103
597 7 $1730
598 6 $1563
599 1 $1372
600 5 $1749
601 1 $1674
602 3 $1968
603 4 $1615
604 7 $1210
605 2 $1011
606 6 $1651
607 7 $1997
608 5 $1122
609 2 $1135
610 6 $1345
611 3 $1093
612 2 $1483
613 2 $1310
614 1 $1746
615 2 $1967
616 3 $1053
617 2 $1916
618 7 $1554
619 5 $1504
620 1 $1184
621 7 $1478
622 7 $1601
623 3 $1145
624 7 $1798
625 1 $1417
626 2 $1316
627 7 $1639
628 7 $1245
629 6 $1804
630 6 $1042
631 5 $1973
632 5 $1175
633 1 $1761
634 6 $1623
635 3 $1381
636 5 $1122
637 4 $1952
638 6 $1524
639 7 $1867
640 1 $1496
641 5 $1796
642 3 $1533
643 5 $1403
644 2 $1127
645 6 $1523
646 4 $1537
647 6 $1477
648 4 $1522
649 5 $1818
650 7 $1262
651 3 $1656
652 2 $1759
653 1 $1687
654 4 $1162
655 1 $1852
656 5 $1703
657 7 $1206
658 2 $1588
659 1 $1311
660 3 $1329
661 6 $1972
662 5 $1169
663 3 $1537
664 2 $1895
665 5 $1047
666 2 $1871
667 3 $1007
668 6 $1991
669 6 $1132
670 5 $1341
671 3 $1828
672 6 $1067
673 2 $1935
674 3 $1921
675 7 $1028
676 4 $1441
677 2 $1239
678 3 $1881
679 6 $1711
680 6 $1788
681 4 $1064
682 3 $1394
683 1 $1084
684 5 $1642
685 7 $1551
686 5 $1429
687 3 $1955
688 1 $1932
689 5 $1857
690 4 $1516
691 1 $1721
692 7 $1753
693 6 $1300
694 4 $1698
695 6 $1600
696 2 $1395
697 7 $1300
698 7 $1320
699 1 $1805
700 4 $1697
701 6 $1328
702 1 $1336
703 7 $1432
704 7 $1803
705 4 $1266
706 3 $1134
707 1 $1528
708 2 $1481
709 6 $1947
710 4 $1722
711 1 $1236
712 7 $1300
713 3 $1845
714 1 $1216
715 3 $1059
716 5 $1834
717 6 $1734
718 6 $1824
719 1 $1429
720 5 $1879
721 3 $1276
722 3 $1615
723 6 $1087
724 6 $1535
725 1 $1163
726 1 $1299
727 1 $1155
728 2 $1549
729 2 $1905
730 7 $1195
731 6 $1237
732 1 $1200
733 1 $1395
734 4 $1125
735 3 $1616
736 2 $1056
737 2 $1885
738 2 $1341
739 1 $1543
740 5 $1221
741 2 $1982
742 5 $1389
743 7 $1396
744 2 $1352
745 3 $1505
746 3 $1679
747 7 $1701
748 5 $1560
749 1 $1821
750 2 $1621
751 6 $1634
752 7 $1855
753 6 $1982
754 1 $1778
755 6 $1008
756 7 $1306
757 3 $1090
758 6 $1958
759 6 $1505
760 1 $1845
761 2 $1860
762 5 $1406
763 6 $1849
764 5 $1380
765 4 $1341
766 2 $1938
767 6 $1163
768 2 $1027
769 2 $1806
770 3 $1165
771 6 $1866
772 2 $1487
773 7 $1296
774 6 $1825
775 6 $1760
776 7 $1626
777 5 $1236
778 4 $1352
779 3 $1282
780 1 $1819
781 2 $1707
782 5 $1011
783 3 $1082
784 4 $1252
785 2 $1183
786 6 $1055
787 7 $1468
788 2 $1851
789 2 $1991
790 6 $1811
791 7 $1642
792 6 $1689
793 3 $1319
794 7 $1643
795 3 $1336
796 4 $1966
797 3 $1022
798 4 $1089
799 1 $1008
800 5 $1835
801 1 $1359
802 3 $1543
803 3 $1672
804 2 $1486
805 1 $1993
806 4 $1589
807 5 $1439
808 4 $1722
809 6 $1615
810 7 $1649
811 1 $1155
812 2 $1068
813 6 $1744
814 4 $1266
815 2 $1366
816 7 $1847
817 2 $1399
818 4 $1573
819 7 $1300
820 2 $1568
821 1 $1164
822 7 $1376
823 6 $1870
824 4 $1571
825 3 $1050
826 2 $1818
827 2 $1779
828 6 $1069
829 4 $1447
830 2 $1113
831 1 $1474
832 3 $1448
833 4 $1791
834 1 $1329
835 5 $1217
836 6 $1274
837 2 $1025
838 7 $1164
839 5 $1465
840 2 $1550
841 2 $1601
842 2 $1140
843 7 $1591
844 6 $1841
845 5 $1596
846 7 $1043
847 1 $1229
848 2 $1798
849 1 $1071
850 4 $1612
851 5 $1255
852 2 $1939
853 2 $1984
854 4 $1023
855 7 $1414
856 5 $1362
857 4 $1667
858 3 $1921
859 2 $1872
860 4 $1185
861 3 $1239
862 7 $1322
863 7 $1726
864 1 $1450
865 1 $1198
866 7 $1229
867 6 $1445
868 3 $1596
869 1 $1265
870 6 $1571
871 3 $1486
872 5 $1176
873 1 $1002
874 4 $1240
875 3 $1710
876 2 $1060
877 7 $1080
878 6 $1917
879 5 $1799
880 4 $1883
881 4 $1718
882 3 $1068
883 3 $1397
884 7 $1899
885 4 $1748
886 3 $1503
887 2 $1113
888 7 $1550
889 6 $1476
890 6 $1794
891 2 $1161
892 2 $1659
893 7 $1638
894 4 $1948
895 1 $1550
896 4 $1810
897 5 $1061
898 4 $1330
899 4 $1381
900 4 $1738
901 5 $1896
902 7 $1060
903 4 $1767
904 1 $1047
905 4 $1546
906 4 $1518
907 1 $1785
908 5 $1028
909 1 $1626
910 3 $1776
911 6 $1052
912 6 $1030
913 6 $1780
914 5 $1990
915 2 $1478
916 7 $1929
917 2 $1830
918 5 $1489
919 3 $1655
920 6 $1544
921 4 $1324
922 3 $1196
923 1 $1109
924 5 $1985
925 4 $1036
926 5 $1608
927 1 $1881
928 3 $1879
929 7 $1243
930 3 $1104
931 1 $1432
932 7 $1447
933 2 $1022
934 1 $1654
935 4 $1722
936 5 $1459
937 3 $1274
938 2 $1156
939 4 $1934
940 5 $1434
941 3 $1284
942 3 $1660
943 6 $1117
944 6 $1013
945 4 $1777
946 6 $1505
947 6 $1330
948 7 $1195
949 7 $1296
950 4 $1963
951 3 $1881
952 1 $1831
953 2 $1979
954 4 $1503
955 4 $1028
956 3 $1509
957 7 $1906
958 1 $1765
959 3 $1039
960 6 $1625
961 4 $1992
962 5 $1872
963 1 $1158
964 5 $1776
965 3 $1364
966 3 $1833
967 2 $1849
968 7 $1628
969 3 $1913
970 4 $1188
971 3 $1663
972 6 $1044
973 6 $1022
974 5 $1762
975 4 $1968
976 6 $1994
977 6 $1150
978 4 $1893
979 1 $1938
980 3 $1947
981 1 $1289
982 2 $1295
983 6 $1013
984 2 $1283
985 5 $1362
986 7 $1708
987 4 $1847
988 2 $1494
989 5 $1871
990 4 $1035
991 1 $1425
992 6 $1632
993 1 $1636
994 7 $1105
995 7 $1431
996 3 $1934
997 6 $1256
998 2 $1158
999 4 $1796
1000 3 $1619
1001 1 $1271
1002 3 $1333
1003 3 $1860
1004 2 $1548
1005 5 $1118
1006 3 $1584
1007 4 $1968
1008 6 $1980
1009 3 $1186
1010 1 $1051
1011 2 $1133
1012 3 $1353
1013 3 $1337
1014 5 $1540
1015 6 $1125
1016 7 $1388
1017 3 $1935
1018 4 $1417
1019 7 $1413
1020 5 $1053
1021 5 $1707
1022 4 $1650
1023 7 $1357
1024 6 $1405
1025 4 $1424
1026 6 $1891
1027 3 $1812
1028 5 $1746
1029 2 $1420
1030 6 $1339
1031 4 $1361
1032 1 $1343
1033 1 $1308
1034 3 $1856
1035 1 $1259
1036 6 $1249
1037 3 $1006
1038 4 $1320
1039 6 $1626
1040 6 $1667
1041 4 $1325
1042 2 $1257
1043 4 $1667
1044 2 $1891
1045 2 $1585
1046 7 $1531
1047 2 $1904
1048 7 $1555
1049 5 $1388
1050 5 $1624
1051 6 $1886
1052 5 $1145
1053 1 $1503
1054 6 $1459
1055 1 $1773
1056 2 $1759
1057 3 $1219
1058 5 $1934
1059 3 $1940
1060 5 $1187
1061 6 $1960
1062 6 $1170
1063 4 $1658
1064 6 $1632
1065 3 $1601
1066 7 $1475
1067 7 $1518
1068 2 $1067
1069 4 $1269
1070 6 $1242
1071 4 $1304
1072 4 $1064
1073 7 $1320
1074 3 $1177
1075 3 $1373
1076 7 $1731
1077 1 $1560
1078 1 $1554
1079 3 $1727
1080 6 $1271
1081 4 $1953
1082 1 $1705
1083 4 $1114
1084 5 $1882
1085 7 $1033
1086 3 $1925
1087 2 $1457
1088 6 $1662
1089 3 $1733
1090 4 $1091
1091 1 $1143
1092 1 $1313
1093 4 $1058
1094 2 $1363
1095 1 $1486
1096 4 $1166
1097 2 $1341
1098 3 $1224
1099 5 $1140
1100 7 $1307
1101 1 $1339
1102 4 $1772
1103 6 $1208
1104 1 $1561
1105 5 $1377
1106 1 $1555
1107 6 $1466
1108 4 $1887
1109 2 $1942
1110 2 $1747
1111 4 $1280
1112 6 $1408
1113 2 $1780
1114 5 $1418
1115 4 $1026
1116 3 $1760
1117 4 $1387
1118 5 $1664
1119 4 $1575
1120 3 $1466
1121 1 $1830
1122 5 $1297
1123 3 $1293
1124 7 $1101
1125 7 $1820
1126 5 $1244
1127 6 $1957
1128 7 $1010
1129 3 $1872
1130 2 $1286
1131 6 $1477
1132 3 $1120
1133 1 $1265
1134 3 $1720
1135 1 $1005
1136 5 $1240
1137 5 $1018
1138 6 $1821
1139 1 $1314
1140 1 $1994
1141 6 $1723
1142 4 $1861
1143 4 $1637
1144 7 $1454
1145 3 $1871
1146 5 $1605
1147 1 $1933
1148 5 $1659
1149 7 $1108
1150 5 $1140
1151 4 $1449
1152 6 $1908
1153 4 $1991
1154 5 $1408
1155 1 $1951
1156 4 $1606
1157 2 $1733
1158 1 $1991
1159 3 $1872
1160 1 $1611
1161 5 $1386
1162 6 $1462
1163 1 $1569
1164 6 $1578
1165 2 $1478
1166 3 $1973
1167 1 $1900
1168 2 $1725
1169 7 $1915
1170 2 $1721
1171 4 $1133
1172 4 $1833
1173 5 $1584
1174 2 $1033
1175 4 $1254
1176 5 $1817
1177 5 $1377
1178 7 $1025
1179 4 $1299
1180 2 $1772
1181 4 $1285
1182 4 $1738
1183 4 $1014
1184 3 $1571
1185 1 $1078
1186 3 $1896
1187 3 $1524
1188 7 $1036
1189 6 $1365
1190 1 $1699
1191 6 $1110
1192 5 $1801
1193 5 $1460
1194 3 $1702
1195 7 $1537
1196 7 $1833
1197 4 $1794
1198 4 $1571
1199 2 $1255
1200 4 $1790
1201 2 $1890
1202 5 $1918
1203 3 $1523
1204 7 $1270
1205 6 $1284
1206 7 $1781
1207 7 $1505
1208 7 $1218
1209 5 $1066
1210 7 $1286
1211 2 $1668
1212 3 $1746
1213 7 $1156
1214 5 $1153
1215 3 $1054
1216 3 $1423
1217 5 $1341
1218 4 $1082
1219 1 $1804
1220 7 $1751
1221 5 $1436
1222 1 $1312
1223 2 $1703
1224 6 $1725
1225 5 $1285
1226 5 $1808
1227 1 $1116
1228 7 $1958
1229 6 $1645
1230 7 $1707
1231 5 $1580
1232 7 $1133
1233 5 $1313
1234 6 $1692
1235 5 $1469
1236 5 $1856
1237 4 $1503
1238 2 $1707
1239 5 $1544
1240 6 $1064
1241 5 $1555
1242 5 $1381
1243 3 $1737
1244 1 $1309
1245 5 $1883
1246 3 $1001
1247 6 $1506
1248 2 $1048
1249 5 $1340
1250 7 $1668
1251 4 $1431
1252 5 $1423
1253 1 $1051
1254 2 $1390
1255 7 $1299
1256 7 $1981
1257 1 $1437
1258 6 $1196
1259 1 $1194
1260 3 $1104
1261 6 $1615
1262 3 $1652
1263 5 $1237
1264 6 $1993
1265 1 $1775
1266 1 $1939
1267 6 $1802
1268 3 $1455
1269 2 $1001
1270 6 $1098
1271 4 $1746
1272 3 $1844
1273 5 $1610
1274 4 $1453
1275 6 $1352
1276 1 $1574
1277 6 $1937
1278 3 $1515
1279 5 $1920
1280 5 $1183
1281 3 $1857
1282 1 $1512
1283 2 $1198
1284 3 $1645
1285 4 $1393
1286 1 $1646
1287 4 $1395
1288 3 $1483
1289 7 $1876
1290 3 $1432
1291 4 $1044
1292 4 $1343
1293 6 $1601
1294 6 $1062
1295 2 $1202
1296 6 $1298
1297 4 $1180
1298 2 $1940
1299 6 $1739
1300 3 $1851
1301 4 $1923
1302 7 $1090
1303 4 $1799
1304 7 $1660
1305 7 $1385
1306 3 $1958
1307 3 $1908
1308 6 $1499
1309 4 $1943
1310 4 $1541
1311 3 $1466
1312 4 $1179
1313 6 $1454
1314 2 $1086
1315 4 $1280
1316 3 $1856
1317 2 $1102
1318 6 $1871
1319 3 $1174
1320 6 $1062
1321 7 $1179
1322 4 $1934
1323 2 $1784
1324 3 $1059
1325 2 $1186
1326 2 $1513
1327 4 $1601
1328 5 $1593
1329 7 $1048
1330 3 $1590
1331 2 $1414
1332 5 $1909
1333 1 $1564
1334 5 $1436
1335 7 $1543
1336 3 $1306
1337 2 $1648
1338 4 $1808
1339 6 $1018
1340 1 $1734
1341 5 $1907
1342 5 $1313
1343 2 $1463
1344 6 $1236
1345 1 $1146
1346 7 $1940
1347 7 $1701
1348 7 $1417
1349 2 $1363
1350 5 $1545
1351 2 $1132
1352 2 $1167
1353 2 $1537
1354 7 $1036
1355 4 $1920
1356 3 $1093
1357 2 $1803
1358 6 $1894
1359 5 $1412
1360 3 $1500
1361 2 $1588
1362 4 $1401
1363 7 $1509
1364 1 $1948
1365 1 $1836
1366 3 $1271
1367 1 $1667
1368 1 $1117
1369 6 $1013
1370 1 $1459
1371 2 $1843
1372 6 $1238
1373 5 $1455
1374 7 $1678
1375 5 $1312
1376 6 $1706
1377 4 $1797
1378 7 $1316
1379 7 $1637
1380 3 $1998
1381 1 $1511
1382 2 $1229
1383 3 $1917
1384 1 $1093
1385 7 $1294
1386 6 $1157
1387 7 $1339
1388 6 $1364
1389 5 $1266
1390 2 $1243
1391 2 $1762
1392 6 $1333
1393 3 $1319
1394 5 $1038
1395 4 $1159
1396 2 $1296
1397 4 $1499
1398 5 $1347
1399 2 $1546
1400 6 $1885
1401 6 $1250
1402 2 $1288
1403 7 $1464
1404 2 $1124
1405 5 $1059
1406 6 $1869
1407 7 $1100
1408 4 $1558
1409 3 $1352
1410 1 $1533
1411 3 $1113
1412 2 $1961
1413 4 $1033
1414 5 $1866
1415 6 $1793
1416 6 $1519
1417 6 $1874
1418 5 $1094
1419 3 $1778
1420 5 $1640
1421 2 $1009
1422 4 $1218
1423 6 $1396
1424 2 $1252
1425 2 $1913
1426 6 $1779
1427 7 $1812
1428 5 $1273
1429 3 $1466
1430 1 $1800
1431 6 $1100
1432 1 $1947
1433 2 $1510
1434 7 $1054
1435 4 $1576
1436 3 $1887
1437 5 $1109
1438 4 $1732
1439 6 $1227
1440 4 $1911
1441 6 $1442
1442 1 $1832
1443 2 $1536
1444 4 $1977
1445 4 $1500
1446 4 $1016
1447 4 $1177
1448 6 $1280
1449 6 $1622
1450 6 $1033
1451 2 $1892
1452 6 $1609
1453 1 $1311
1454 4 $1395
1455 7 $1904
1456 3 $1263
1457 6 $1426
1458 1 $1522
1459 4 $1837
1460 4 $1744
1461 3 $1496
1462 3 $1151
1463 7 $1937
1464 5 $1094
1465 6 $1793
1466 4 $1133
1467 2 $1492
1468 5 $1407
1469 6 $1615
1470 6 $1501
1471 5 $1245
1472 6 $1197
1473 1 $1779
1474 5 $1763
1475 2 $1466
1476 5 $1406
1477 6 $1397
1478 5 $1159
1479 4 $1332
1480 3 $1821
1481 3 $1729
1482 5 $1772
1483 4 $1417
1484 7 $1576
1485 1 $1908
1486 5 $1660
1487 4 $1800
1488 4 $1296
1489 1 $1763
1490 4 $1778
1491 3 $1448
1492 7 $1492
1493 1 $1037
1494 5 $1535
1495 1 $1746
1496 7 $1662
1497 2 $1484
1498 1 $1982
1499 2 $1906
1500 7 $1876
1501 2 $1432
1502 3 $1024
1503 4 $1090
1504 7 $1536
1505 2 $1995
1506 6 $1568
1507 5 $1543
1508 6 $1689
1509 1 $1062
1510 7 $1087
1511 7 $1139
1512 7 $1440
1513 6 $1771
1514 6 $1266
1515 1 $1241
1516 2 $1459
1517 6 $1313
1518 2 $1823
1519 1 $1675
1520 3 $1126
1521 7 $1979
1522 7 $1212
1523 1 $1247
1524 1 $1381
1525 1 $1313
1526 1 $1936
1527 4 $1134
1528 7 $1675
1529 2 $1117
1530 7 $1744
1531 2 $1900
1532 6 $1174
1533 1 $1800
1534 2 $1299
1535 2 $1083
1536 6 $1897
1537 4 $1571
1538 7 $1566
1539 3 $1560
1540 4 $1648
1541 2 $1214
1542 3 $1745
1543 6 $1628
1544 6 $1584
1545 4 $1708
1546 3 $1544
1547 1 $1868
1548 5 $1564
1549 5 $1492
1550 7 $1771
1551 4 $1810
1552 7 $1145
1553 3 $1746
1554 4 $1335
1555 4 $1450
1556 5 $1963
1557 4 $1773
1558 1 $1258
1559 2 $1789
1560 6 $1006
1561 1 $1078
1562 7 $1411
1563 3 $1401
1564 1 $1798
1565 5 $1879
1566 5 $1640
1567 7 $1623
1568 6 $1863
1569 1 $1602
1570 3 $1229
1571 3 $1924
1572 7 $1493
1573 4 $1421
1574 5 $1228
1575 1 $1217
1576 4 $1549
1577 5 $1117
1578 7 $1560
1579 7 $1187
1580 1 $1043
1581 7 $1264
1582 1 $1080
1583 1 $1027
1584 4 $1665
1585 3 $1353
1586 4 $1810
1587 1 $1423
1588 1 $1103
1589 3 $1175
1590 1 $1254
1591 7 $1552
1592 3 $1677
1593 3 $1599
1594 4 $1591
1595 7 $1722
1596 2 $1859
1597 6 $1374
1598 6 $1814
1599 1 $1262
1600 1 $1170
1601 3 $1568
1602 2 $1646
1603 3 $1659
1604 4 $1816
1605 4 $1172
1606 5 $1480
1607 6 $1401
1608 1 $1551
1609 6 $1421
1610 6 $1112
1611 4 $1933
1612 2 $1734
1613 7 $1522
1614 7 $1639
1615 6 $1072
1616 6 $1847
1617 6 $1702
1618 4 $1152
1619 6 $1616
1620 3 $1352
1621 6 $1434
1622 5 $1827
1623 4 $1877
1624 3 $1026
1625 5 $1598
1626 5 $1044
1627 2 $1557
1628 3 $1085
1629 6 $1676
1630 1 $1133
1631 2 $1937
1632 2 $1634
1633 3 $1333
1634 7 $1520
1635 7 $1710
1636 3 $1055
1637 1 $1569
1638 1 $1294
1639 2 $1828
1640 2 $1887
1641 1 $1732
1642 3 $1619
1643 7 $1762
1644 3 $1255
1645 2 $1619
1646 3 $1487
1647 2 $1840
1648 6 $1930
1649 5 $1619
1650 6 $1022
1651 2 $1396
1652 4 $1806
1653 4 $1307
1654 5 $1961
1655 5 $1606
1656 3 $1077
1657 6 $1077
1658 4 $1379
1659 1 $1988
1660 4 $1821
1661 6 $1025
1662 2 $1365
1663 5 $1967
1664 7 $1760
1665 1 $1378
1666 5 $1707
1667 4 $1099
1668 7 $1804
1669 6 $1798
1670 7 $1148
1671 2 $1531
1672 1 $1236
1673 6 $1242
1674 2 $1646
1675 3 $1411
1676 2 $1213
1677 2 $1452
1678 5 $1816
1679 1 $1540
1680 6 $1610
1681 6 $1008
1682 3 $1934
1683 2 $1747
1684 3 $1017
1685 7 $1475
1686 3 $1792
1687 3 $1426
1688 6 $1700
1689 1 $1187
1690 2 $1587
1691 3 $1942
1692 7 $1329
1693 1 $1813
1694 1 $1359
1695 7 $1752
1696 7 $1131
1697 1 $1797
1698 5 $1143
1699 3 $1236
1700 3 $1270
1701 6 $1962
1702 7 $1604
1703 6 $1389
1704 2 $1198
1705 5 $1760
1706 3 $1379
1707 6 $1766
1708 7 $1993
1709 2 $1604
1710 2 $1130
1711 5 $1530
1712 3 $1664
1713 1 $1155
1714 1 $1551
1715 3 $1734
1716 3 $1850
1717 5 $1699
1718 5 $1841
1719 1 $1714
1720 4 $1153
1721 2 $1160
1722 1 $1044
1723 4 $1267
1724 1 $1955
1725 3 $1513
1726 3 $1810
1727 4 $1844
1728 3 $1715
1729 4 $1840
1730 2 $1685
1731 3 $1912
1732 3 $1741
1733 2 $1782
1734 2 $1606
1735 6 $1434
1736 6 $1686
1737 3 $1245
1738 5 $1385
1739 4 $1333
1740 7 $1897
1741 3 $1507
1742 4 $1390
1743 2 $1092
1744 6 $1483
1745 7 $1502
1746 2 $1617
1747 6 $1875
1748 1 $1856
1749 1 $1890
1750 7 $1243
1751 6 $1388
1752 6 $1307
1753 5 $1917
1754 1 $1743
1755 1 $1356
1756 4 $1195
1757 2 $1516
1758 4 $1102
1759 3 $1947
1760 2 $1864
1761 4 $1603
1762 7 $1036
1763 3 $1768
1764 5 $1730
1765 5 $1593
1766 2 $1480
1767 7 $1314
1768 4 $1762
1769 4 $1273
1770 2 $1312
1771 3 $1231
1772 6 $1615
1773 5 $1978
1774 1 $1330
1775 7 $1049
1776 1 $1379
1777 6 $1568
1778 5 $1332
1779 4 $1468
1780 1 $1899
1781 5 $1809
1782 7 $1518
1783 3 $1290
1784 5 $1419
1785 1 $1456
1786 4 $1291
1787 3 $1824
1788 1 $1391
1789 4 $1294
1790 5 $1467
1791 3 $1846
1792 7 $1779
1793 7 $1332
1794 5 $1284
1795 5 $1362
1796 1 $1524
1797 7 $1115
1798 7 $1404
1799 4 $1061
1800 2 $1108
1801 5 $1036
1802 5 $1496
1803 5 $1733
1804 1 $1682
1805 6 $1448
1806 3 $1680
1807 7 $1682
1808 1 $1976
1809 1 $1025
1810 4 $1673
1811 6 $1033
1812 1 $1996
1813 1 $1134
1814 7 $1266
1815 5 $1643
1816 5 $1359
1817 7 $1931
1818 3 $1448
1819 3 $1599
1820 4 $1809
1821 4 $1007
1822 2 $1218
1823 6 $1708
1824 6 $1811
1825 4 $1125
1826 4 $1133
1827 7 $1104
1828 4 $1099
1829 6 $1684
1830 2 $1473
1831 7 $1788
1832 6 $1323
1833 6 $1647
1834 7 $1586
1835 3 $1726
1836 6 $1019
1837 5 $1965
1838 7 $1176
1839 3 $1813
1840 6 $1818
1841 1 $1697
1842 6 $1071
1843 2 $1400
1844 4 $1313
1845 6 $1395
1846 7 $1776
1847 1 $1520
1848 1 $1385
1849 1 $1574
1850 7 $1590
1851 7 $1225
1852 3 $1024
1853 2 $1128
1854 1 $1122
1855 1 $1853
1856 6 $1696
1857 2 $1461
1858 4 $1207
1859 3 $1017
1860 4 $1279
1861 1 $1788
1862 1 $1631
1863 1 $1294
1864 2 $1320
1865 3 $1761
1866 7 $1685
1867 5 $1178
1868 6 $1928
1869 3 $1729
1870 7 $1008
1871 2 $1188
1872 2 $1834
1873 3 $1721
1874 2 $1038
1875 5 $1787
1876 7 $1100
1877 2 $1735
1878 2 $1415
1879 7 $1376
1880 6 $1600
1881 5 $1303
1882 3 $1173
1883 7 $1935
1884 2 $1300
1885 7 $1048
1886 5 $1027
1887 4 $1450
1888 5 $1786
1889 2 $1436
1890 2 $1675
1891 7 $1278
1892 3 $1272
1893 2 $1228
1894 7 $1206
1895 3 $1460
1896 2 $1161
1897 6 $1722
1898 7 $1673
1899 6 $1513
1900 1 $1099
1901 3 $1789
1902 1 $1218
1903 1 $1702
1904 4 $1031
1905 3 $1920
1906 4 $1471
1907 3 $1561
1908 6 $1756
1909 1 $1915
1910 4 $1935
1911 3 $1050
1912 5 $1796
1913 5 $1120
1914 6 $1342
1915 3 $1504
1916 7 $1981
1917 5 $1239
1918 7 $1397
1919 6 $1049
1920 2 $1514
1921 5 $1067
1922 4 $1392
1923 3 $1677
1924 3 $1903
1925 4 $1259
1926 1 $1607
1927 2 $1316
1928 7 $1528
1929 1 $1722
1930 2 $1654
1931 5 $1467
1932 5 $1299
1933 7 $1575
1934 6 $1461
1935 6 $1332
1936 5 $1569
1937 4 $1430
1938 6 $1416
1939 6 $1170
1940 6 $1530
1941 5 $1381
1942 2 $1008
1943 7 $1001
1944 6 $1078
1945 2 $1408
1946 1 $1856
1947 7 $1164
1948 2 $1332
1949 5 $1093
1950 5 $1849
1951 7 $1588
1952 6 $1998
1953 7 $1681
1954 7 $1831
1955 7 $1856
1956 7 $1379
1957 3 $1217
1958 6 $1697
1959 3 $1512
1960 6 $1021
1961 7 $1106
1962 2 $1277
1963 3 $1161
1964 3 $1984
1965 6 $1673
1966 4 $1545
1967 5 $1668
1968 3 $1761
1969 4 $1075
1970 7 $1235
1971 7 $1751
1972 3 $1588
1973 5 $1127
1974 2 $1851
1975 6 $1298
1976 2 $1933
1977 4 $1935
1978 6 $1787
1979 3 $1459
1980 5 $1160
1981 6 $1083
1982 3 $1846
1983 5 $1619
1984 4 $1977
1985 1 $1758
1986 4 $1310
1987 3 $1606
1988 1 $1525
1989 4 $1055
1990 5 $1420
1991 3 $1311
1992 7 $1550
1993 4 $1065
1994 3 $1109
1995 1 $1098
1996 1 $1923
1997 7 $1747
1998 5 $1359
1999 5 $1224
2000 7 $1462
2001 2 $1992
2002 3 $1744
2003 2 $1983
2004 2 $1948
2005 2 $1064
2006 7 $1134
2007 1 $1935
2008 3 $1769
2009 4 $1086
2010 6 $1432
2011 7 $1086
2012 7 $1265
2013 5 $1368
2014 6 $1236
2015 2 $1308
2016 1 $1496
2017 3 $1930
2018 7 $1303
2019 7 $1104
2020 2 $1547
2021 6 $1107
2022 7 $1569
2023 3 $1593
2024 2 $1181
2025 2 $1175
2026 1 $1566
2027 7 $1934
2028 7 $1571
2029 2 $1611
2030 7 $1710
2031 2 $1359
2032 1 $1752
2033 6 $1772
2034 4 $1069
2035 6 $1002
2036 6 $1473
2037 2 $1720
2038 1 $1844
2039 4 $1215
2040 6 $1306
2041 2 $1395
2042 4 $1630
2043 6 $1123
2044 6 $1456
2045 7 $1420
2046 7 $1788
2047 2 $1209
2048 2 $1829
2049 7 $1142
2050 6 $1897
2051 2 $1140
2052 6 $1039
2053 1 $1095
2054 5 $1623
2055 3 $1159
2056 5 $1593
2057 1 $1396
2058 6 $1984
2059 7 $1406
2060 5 $1696
2061 4 $1699
2062 3 $1022
2063 2 $1818
2064 1 $1023
2065 2 $1783
2066 7 $1492
2067 5 $1256
2068 6 $1716
2069 1 $1776
2070 7 $1114
2071 6 $1594
2072 1 $1185
2073 6 $1712
2074 6 $1373
2075 5 $1500
2076 7 $1995
2077 1 $1632
2078 1 $1812
2079 7 $1489
2080 4 $1790
2081 7 $1793
2082 3 $1796
2083 5 $1588
2084 1 $1672
2085 6 $1123
2086 5 $1374
2087 5 $1656
2088 5 $1386
2089 7 $1769
2090 6 $1780
2091 3 $1400
2092 3 $1986
2093 4 $1058
2094 7 $1567
2095 2 $1959
2096 5 $1283
2097 1 $1618
2098 2 $1140
2099 5 $1113
2100 5 $1539
2101 3 $1223
2102 4 $1466
2103 5 $1680
2104 2 $1660
2105 2 $1573
2106 7 $1269
2107 6 $1297
2108 7 $1228
2109 7 $1474
2110 2 $1542
2111 6 $1236
2112 1 $1350
2113 6 $1827
2114 6 $1857
2115 7 $1775
2116 3 $1806
2117 2 $1909
2118 6 $1534
2119 1 $1812
2120 5 $1472
2121 5 $1789
2122 4 $1753
2123 1 $1422
2124 5 $1978
2125 3 $1656
2126 5 $1770
2127 7 $1528
2128 2 $1229
2129 6 $1411
2130 7 $1829
2131 2 $1790
2132 6 $1960
2133 4 $1973
2134 6 $1266
2135 1 $1162
2136 4 $1373
2137 5 $1128
2138 2 $1847
2139 1 $1440
2140 4 $1651
2141 7 $1572
2142 6 $1593
2143 3 $1083
2144 1 $1626
2145 4 $1644
2146 3 $1015
2147 7 $1342
2148 6 $1650
2149 5 $1023
2150 5 $1431
2151 5 $1579
2152 1 $1148
2153 5 $1496
2154 3 $1087
2155 4 $1591
2156 7 $1359
2157 5 $1542
2158 3 $1669
2159 7 $1884
2160 1 $1636
2161 6 $1220
2162 3 $1687
2163 1 $1886
2164 7 $1146
2165 7 $1322
2166 1 $1805
2167 6 $1879
2168 5 $1044
2169 3 $1611
2170 5 $1713
2171 5 $1779
2172 2 $1374
2173 7 $1701
2174 1 $1198
2175 6 $1116
2176 7 $1052
2177 2 $1421
2178 3 $1126
2179 7 $1079
2180 7 $1490
2181 2 $1952
2182 5 $1010
2183 3 $1686
2184 2 $1397
2185 4 $1850
2186 7 $1582
2187 3 $1180
2188 6 $1433
2189 5 $1379
2190 7 $1690
2191 7 $1771
2192 1 $1128
2193 4 $1949
2194 4 $1227
2195 3 $1617
2196 6 $1114
2197 3 $1415
2198 4 $1680
2199 5 $1287
2200 2 $1311
2201 7 $1941
2202 3 $1093
2203 2 $1473
2204 1 $1895
2205 2 $1718
2206 7 $1203
2207 5 $1505
2208 6 $1514
2209 2 $1324
2210 2 $1894
2211 6 $1396
2212 6 $1840
2213 2 $1032
2214 1 $1830
2215 4 $1547
2216 3 $1747
2217 2 $1196
2218 2 $1191
2219 1 $1308
2220 2 $1352
2221 7 $1751
2222 4 $1105
2223 5 $1782
2224 3 $1786
2225 5 $1420
2226 2 $1880
2227 3 $1352
2228 5 $1726
2229 1 $1779
2230 7 $1180
2231 3 $1226
2232 1 $1432
2233 6 $1350
2234 4 $1363
2235 4 $1835
2236 4 $1789
2237 1 $1861
2238 7 $1074
2239 3 $1802
2240 6 $1447
2241 6 $1531
2242 7 $1176
2243 3 $1084
2244 7 $1988
2245 7 $1215
2246 1 $1835
2247 6 $1428
2248 1 $1414
2249 2 $1725
2250 1 $1945
2251 3 $1479
2252 2 $1421
2253 5 $1322
2254 2 $1104
2255 6 $1196
2256 6 $1233
2257 2 $1539
2258 5 $1390
2259 1 $1538
2260 3 $1768
2261 5 $1558
2262 5 $1674
2263 6 $1153
2264 2 $1510
2265 7 $1759
2266 1 $1281
2267 4 $1095
2268 2 $1088
2269 4 $1524
2270 2 $1194
2271 2 $1405
2272 4 $1968
2273 2 $1442
2274 1 $1907
2275 7 $1320
2276 5 $1140
2277 4 $1606
2278 1 $1122
2279 5 $1977
2280 4 $1695
2281 7 $1245
2282 4 $1796
2283 7 $1581
2284 5 $1326
2285 4 $1676
2286 5 $1193
2287 6 $1605
2288 5 $1013
2289 1 $1593
2290 7 $1422
2291 1 $1543
2292 7 $1640
2293 6 $1048
2294 4 $1681
2295 3 $1907
2296 1 $1337
2297 4 $1398
2298 5 $1457
2299 1 $1799
2300 7 $1368
2301 4 $1178
2302 6 $1260
2303 6 $1172
2304 6 $1047
2305 2 $1999
2306 6 $1175
2307 2 $1358
2308 1 $1658
2309 4 $1924
2310 3 $1865
2311 6 $1456
2312 2 $1269
2313 3 $1484
2314 2 $1544
2315 2 $1118
2316 4 $1606
2317 3 $1478
2318 7 $1563
2319 5 $1753
2320 2 $1518
2321 2 $1022
2322 7 $1254
2323 2 $1351
2324 5 $1588
2325 6 $1162
2326 6 $1570
2327 4 $1176
2328 5 $1018
2329 4 $1421
2330 1 $1882
2331 1 $1642
2332 4 $1126
2333 2 $1216
2334 2 $1887
2335 3 $1734
2336 1 $1266
2337 5 $1604
2338 2 $1220
2339 2 $1376
2340 5 $1213
2341 7 $1505
2342 6 $1162
2343 4 $1283
2344 4 $1736
2345 2 $1251
2346 3 $1606
2347 7 $1211
2348 6 $1178
2349 1 $1311
2350 1 $1254
2351 5 $1233
2352 3 $1060
2353 4 $1346
2354 5 $1016
2355 1 $1795
2356 3 $1014
2357 2 $1891
2358 3 $1859
2359 3 $1801
2360 7 $1040
2361 6 $1596
2362 4 $1164
2363 3 $1936
2364 2 $1473
2365 1 $1877
2366 3 $1538
2367 5 $1643
2368 4 $1364
2369 7 $1200
2370 7 $1363
2371 6 $1166
2372 5 $1397
2373 7 $1070
2374 6 $1421
2375 3 $1721
2376 4 $1241
2377 6 $1505
2378 4 $1317
2379 5 $1131
2380 2 $1347
2381 7 $1840
2382 1 $1923
2383 7 $1324
2384 2 $1032
2385 2 $1238
2386 2 $1755
2387 4 $1089
2388 2 $1932
2389 4 $1915
2390 6 $1918
2391 3 $1004
2392 2 $1811
2393 7 $1073
2394 2 $1832
2395 6 $1378
2396 1 $1137
2397 7 $1016
2398 5 $1600
2399 5 $1372
2400 5 $1922
2401 1 $1651
2402 6 $1306
2403 3 $1134
2404 3 $1651
2405 1 $1186
2406 4 $1736
2407 2 $1650
2408 1 $1382
2409 2 $1054
2410 7 $1325
2411 7 $1998
2412 7 $1802
2413 2 $1879
2414 6 $1609
2415 4 $1618
2416 6 $1977
2417 6 $1753
2418 6 $1368
2419 2 $1603
2420 3 $1745
2421 4 $1762
2422 5 $1034
2423 6 $1859
2424 4 $1051
2425 4 $1318
2426 3 $1956
2427 1 $1279
2428 4 $1999
2429 7 $1180
2430 2 $1534
2431 1 $1167
2432 2 $1142
2433 5 $1206
2434 5 $1908
2435 3 $1074
2436 2 $1334
2437 4 $1109
2438 6 $1821
2439 2 $1103
2440 2 $1073
2441 6 $1626
2442 2 $1198
2443 3 $1316
2444 5 $1310
2445 2 $1862
2446 2 $1736
2447 6 $1859
2448 7 $1287
2449 5 $1563
2450 7 $1134
2451 7 $1553
2452 5 $1466
2453 1 $1577
2454 2 $1344
2455 4 $1821
2456 1 $1401
2457 1 $1018
2458 7 $1066
2459 1 $1103
2460 4 $1017
2461 3 $1686
2462 3 $1422
2463 2 $1502
2464 1 $1910
2465 2 $1728
2466 2 $1102
2467 1 $1624
2468 2 $1886
2469 4 $1407
2470 4 $1467
2471 1 $1727
2472 3 $1913
2473 1 $1262
2474 4 $1889
2475 5 $1206
2476 4 $1560
2477 5 $1604
2478 2 $1344
2479 6 $1408
2480 6 $1739
2481 4 $1956
2482 2 $1180
2483 3 $1537
2484 2 $1497
2485 3 $1655
2486 5 $1062
2487 5 $1499
2488 5 $1883
2489 1 $1173
2490 2 $1770
2491 7 $1162
2492 4 $1073
2493 2 $1080
2494 1 $1031
2495 4 $1392
2496 7 $1429
2497 6 $1161
2498 1 $1513
2499 5 $1347
2500 1 $1131
2501 1 $1800
2502 2 $1618
2503 4 $1786
2504 7 $1047
2505 1 $1689
2506 4 $1661
2507 3 $1707
2508 3 $1622
2509 4 $1769
2510 7 $1090
2511 6 $1008
2512 2 $1260
2513 4 $1605
2514 3 $1557
2515 2 $1541
2516 2 $1317
2517 5 $1140
2518 7 $1630
2519 5 $1812
2520 7 $1836
2521 2 $1400
2522 1 $1058
2523 2 $1385
2524 4 $1663
2525 6 $1449
2526 6 $1441
2527 2 $1542
2528 3 $1280
2529 5 $1905
2530 3 $1310
2531 5 $1880
2532 5 $1277
2533 1 $1625
2534 6 $1139
2535 4 $1696
2536 3 $1074
2537 3 $1483
2538 3 $1234
2539 1 $1171
2540 2 $1882
2541 5 $1710
2542 3 $1780
2543 6 $1019
2544 3 $1394
2545 2 $1797
2546 3 $1390
2547 2 $1396
2548 6 $1862
2549 2 $1792
2550 2 $1263
2551 4 $1367
2552 5 $1281
2553 1 $1001
2554 2 $1308
2555 7 $1083
2556 4 $1361
2557 1 $1801
2558 4 $1116
2559 1 $1735
2560 3 $1200
2561 7 $1905
2562 4 $1884
2563 2 $1785
2564 5 $1149
2565 7 $1601
2566 4 $1668
2567 3 $1954
2568 6 $1905
2569 2 $1836
2570 5 $1408
2571 3 $1871
2572 5 $1643
2573 6 $1090
2574 3 $1304
2575 7 $1185
2576 1 $1997
2577 7 $1204
2578 3 $1961
2579 2 $1086
2580 4 $1380
2581 7 $1292
2582 5 $1098
2583 7 $1855
2584 1 $1323
2585 1 $1826
2586 2 $1743
2587 7 $1488
2588 1 $1433
2589 2 $1760
2590 6 $1441
2591 2 $1907
2592 3 $1774
2593 1 $1792
2594 4 $1404
2595 4 $1469
2596 2 $1954
2597 5 $1064
2598 5 $1071
2599 1 $1206
2600 6 $1375
2601 7 $1325
2602 5 $1600
2603 6 $1157
2604 2 $1362
2605 7 $1957
2606 4 $1470
2607 5 $1635
2608 3 $1149
2609 3 $1883
2610 3 $1701
2611 6 $1444
2612 1 $1504
2613 2 $1166
2614 1 $1421
2615 4 $1881
2616 1 $1755
2617 1 $1643
2618 5 $1507
2619 6 $1376
2620 2 $1990
2621 3 $1335
2622 4 $1879
2623 2 $1610
2624 4 $1737
2625 6 $1046
2626 1 $1956
2627 2 $1956
2628 4 $1285
2629 1 $1503
2630 4 $1291
2631 4 $1486
2632 6 $1161
2633 6 $1909
2634 6 $1377
2635 3 $1071
2636 2 $1805
2637 2 $1743
2638 4 $1700
2639 1 $1576
2640 3 $1011
2641 4 $1968
2642 3 $1586
2643 6 $1220
2644 7 $1017
2645 3 $1561
2646 7 $1602
2647 3 $1903
2648 2 $1680
2649 3 $1370
2650 4 $1593
2651 7 $1212
2652 7 $1992
2653 6 $1381
2654 2 $1278
2655 4 $1780
2656 2 $1906
2657 6 $1763
2658 1 $1782
2659 6 $1422
2660 1 $1580
2661 6 $1484
2662 4 $1889
2663 6 $1442
2664 7 $1329
2665 1 $1396
2666 3 $1155
2667 7 $1965
2668 1 $1662
2669 1 $1032
2670 6 $1268
2671 1 $1904
2672 7 $1822
2673 4 $1053
2674 4 $1048
2675 5 $1248
2676 6 $1551
2677 2 $1002
2678 7 $1160
2679 1 $1992
2680 1 $1587
2681 5 $1241
2682 6 $1839
2683 4 $1538
2684 6 $1319
2685 3 $1906
2686 5 $1638
2687 5 $1202
2688 4 $1783
2689 7 $1424
2690 1 $1201
2691 4 $1892
2692 2 $1665
2693 4 $1729
2694 6 $1040
2695 7 $1336
2696 5 $1326
2697 2 $1514
2698 1 $1502
2699 7 $1109
2700 3 $1468
2701 6 $1257
2702 5 $1365
2703 7 $1595
2704 2 $1278
2705 2 $1274
2706 5 $1368
2707 5 $1512
2708 2 $1122
2709 7 $1634
2710 4 $1463
2711 6 $1604
2712 2 $1882
2713 3 $1407
2714 6 $1775
2715 7 $1589
2716 4 $1468
2717 4 $1766
2718 4 $1272
2719 4 $1811
2720 5 $1954
2721 5 $1891
2722 1 $1685
2723 7 $1773
2724 2 $1515
2725 1 $1341
2726 1 $1608
2727 1 $1818
2728 4 $1216
2729 4 $1304
2730 1 $1603
2731 2 $1393
2732 2 $1911
2733 7 $1465
2734 5 $1495
2735 1 $1010
2736 1 $1156
2737 3 $1685
2738 6 $1905
2739 7 $1842
2740 3 $1899
2741 3 $1522
2742 3 $1264
2743 5 $1579
2744 4 $1287
2745 4 $1636
2746 7 $1241
2747 6 $1906
2748 5 $1782
2749 1 $1738
2750 4 $1947
2751 7 $1159
2752 7 $1386
2753 6 $1414
2754 4 $1323
2755 5 $1857
2756 1 $1954
2757 4 $1273
2758 3 $1769
2759 1 $1919
2760 5 $1679
2761 2 $1493
2762 6 $1257
2763 1 $1552
2764 4 $1760
2765 4 $1088
2766 2 $1851
2767 3 $1892
2768 4 $1846
2769 2 $1960
2770 1 $1475
2771 6 $1224
2772 2 $1361
2773 5 $1273
2774 1 $1234
2775 2 $1374
2776 2 $1441
2777 1 $1545
2778 6 $1763
2779 1 $1186
2780 3 $1989
2781 5 $1909
2782 3 $1743
2783 2 $1415
2784 7 $1664
2785 1 $1321
2786 5 $1050
2787 1 $1320
2788 4 $1423
2789 7 $1860
2790 2 $1083
2791 3 $1751
2792 4 $1780
2793 7 $1889
2794 5 $1648
2795 4 $1474
2796 3 $1238
2797 4 $1943
2798 6 $1704
2799 1 $1369
2800 3 $1894
2801 4 $1618
2802 5 $1975
2803 3 $1025
2804 1 $1908
2805 6 $1952
2806 3 $1589
2807 4 $1828
2808 3 $1600
2809 7 $1668
2810 1 $1415
2811 3 $1510
2812 5 $1970
2813 5 $1055
2814 1 $1893
2815 7 $1898
2816 1 $1522
2817 2 $1858
2818 7 $1490
2819 5 $1187
2820 5 $1512
2821 6 $1358
2822 5 $1031
2823 4 $1883
2824 3 $1966
2825 4 $1452
2826 2 $1576
2827 4 $1663
2828 1 $1345
2829 5 $1229
2830 7 $1246
2831 3 $1417
2832 1 $1692
2833 3 $1867
2834 3 $1147
2835 6 $1925
2836 6 $1324
2837 6 $1701
2838 3 $1001
2839 6 $1397
2840 3 $1637
2841 5 $1391
2842 3 $1724
2843 7 $1037
2844 5 $1451
2845 7 $1800
2846 5 $1011
2847 3 $1776
2848 5 $1546
2849 5 $1123
2850 1 $1579
2851 6 $1865
2852 5 $1663
2853 4 $1799
2854 3 $1404
2855 6 $1658
2856 7 $1301
2857 5 $1759
2858 4 $1994
2859 4 $1240
2860 3 $1537
2861 6 $1226
2862 2 $1749
2863 3 $1397
2864 1 $1550
2865 4 $1227
2866 2 $1425
2867 5 $1829
2868 4 $1010
2869 4 $1050
2870 3 $1687
2871 6 $1921
2872 6 $1807
2873 6 $1714
2874 3 $1066
2875 2 $1616
2876 7 $1546
2877 1 $1617
2878 5 $1563
2879 7 $1369
2880 7 $1703
2881 4 $1363
2882 1 $1406
2883 3 $1146
2884 2 $1236
2885 6 $1207
2886 3 $1146
2887 1 $1644
2888 2 $1466
2889 4 $1769
2890 3 $1933
2891 2 $1244
2892 6 $1351
2893 2 $1902
2894 5 $1870
2895 3 $1052
2896 7 $1630
2897 7 $1371
2898 2 $1321
2899 6 $1416
2900 3 $1445
2901 1 $1142
2902 2 $1086
2903 3 $1089
2904 2 $1982
2905 6 $1787
2906 7 $1898
2907 3 $1941
2908 1 $1983
2909 6 $1897
2910 2 $1396
2911 1 $1309
2912 6 $1114
2913 7 $1675
2914 6 $1210
2915 2 $1438
2916 2 $1901
2917 3 $1383
2918 4 $1354
2919 6 $1721
2920 6 $1523
2921 3 $1290
2922 6 $1577
2923 1 $1027
2924 3 $1938
2925 2 $1538
2926 2 $1415
2927 3 $1510
2928 1 $1171
2929 5 $1354
2930 5 $1729
2931 6 $1054
2932 2 $1797
2933 3 $1274
2934 1 $1646
2935 2 $1740
2936 3 $1650
2937 5 $1380
2938 1 $1363
2939 1 $1558
2940 7 $1640
2941 4 $1880
2942 2 $1511
2943 2 $1453
2944 2 $1977
2945 3 $1305
2946 4 $1311
2947 3 $1534
2948 2 $1252
2949 3 $1814
2950 4 $1202
2951 4 $1386
2952 5 $1154
2953 6 $1282
2954 5 $1494
2955 7 $1094
2956 6 $1138
2957 1 $1332
2958 7 $1810
2959 5 $1979
2960 1 $1869
2961 7 $1080
2962 2 $1931
2963 3 $1959
2964 2 $1082
2965 6 $1588
2966 2 $1807
2967 1 $1098
2968 6 $1220
2969 2 $1108
2970 3 $1221
2971 3 $1162
2972 1 $1479
2973 7 $1191
2974 3 $1986
2975 5 $1432
2976 4 $1878
2977 5 $1583
2978 5 $1645
2979 1 $1841
2980 4 $1496
2981 1 $1068
2982 1 $1788
2983 5 $1821
2984 6 $1190
2985 6 $1322
2986 6 $1101
2987 1 $1331
2988 3 $1103
2989 5 $1102
2990 6 $1559
2991 3 $1356
2992 4 $1733
2993 1 $1838
2994 2 $1822
2995 4 $1731
2996 5 $1933
2997 7 $1614
2998 3 $1786
2999 5 $1236
3000 3 $1410
3001 5 $1739
3002 6 $1544
3003 7 $1602
3004 1 $1379
3005 7 $1068
3006 4 $1823
3007 7 $1334
3008 7 $1320
3009 2 $1756
3010 4 $1605
3011 6 $1151
3012 3 $1457
3013 5 $1402
3014 3 $1520
3015 7 $1525
3016 1 $1080
3017 7 $1601
3018 7 $1733
3019 4 $1244
3020 5 $1370
3021 5 $1512
3022 5 $1620
3023 6 $1384
3024 4 $1689
3025 4 $1834
3026 3 $1682
3027 5 $1355
3028 7 $1365
3029 2 $1495
3030 7 $1254
3031 7 $1376
3032 2 $1862
3033 3 $1194
3034 1 $1628
3035 6 $1036
3036 1 $1068
3037 6 $1905
3038 1 $1101
3039 3 $1560
3040 6 $1120
3041 2 $1688
3042 1 $1357
3043 1 $1872
3044 1 $1344
3045 4 $1614
3046 7 $1260
3047 5 $1911
3048 2 $1118
3049 3 $1695
3050 4 $1270
3051 2 $1721
3052 7 $1394
3053 7 $1144
3054 3 $1499
3055 6 $1655
3056 7 $1515
3057 7 $1822
3058 7 $1175
3059 4 $1430
3060 7 $1546
3061 7 $1296
3062 6 $1427
3063 5 $1824
3064 4 $1832
3065 7 $1936
3066 1 $1546
3067 3 $1546
3068 1 $1426
3069 3 $1941
3070 2 $1821
3071 5 $1428
3072 2 $1244
3073 6 $1092
3074 7 $1759
3075 3 $1029
3076 7 $1748
3077 6 $1194
3078 7 $1186
3079 6 $1244
3080 2 $1986
3081 4 $1332
3082 7 $1816
3083 4 $1496
3084 6 $1943
3085 6 $1664
3086 2 $1387
3087 5 $1913
3088 1 $1371
3089 3 $1241
3090 6 $1046
3091 1 $1172
3092 1 $1956
3093 7 $1623
3094 2 $1977
3095 5 $1803
3096 4 $1190
3097 1 $1653
3098 4 $1825
3099 1 $1059
3100 4 $1646
3101 2 $1801
3102 1 $1062
3103 6 $1108
3104 4 $1814
3105 2 $1599
3106 1 $1515
3107 1 $1565
3108 2 $1341
3109 7 $1478
3110 6 $1857
3111 3 $1405
3112 6 $1516
3113 5 $1553
3114 2 $1788
3115 5 $1227
3116 4 $1705
3117 5 $1655
3118 7 $1556
3119 6 $1519
3120 4 $1031
3121 7 $1380
3122 2 $1958
3123 6 $1182
3124 6 $1764
3125 5 $1542
3126 1 $1657
3127 4 $1154
3128 6 $1194
3129 7 $1809
3130 4 $1305
3131 4 $1423
3132 3 $1143
3133 2 $1955
3134 7 $1823
3135 4 $1152
3136 5 $1797
3137 5 $1921
3138 2 $1711
3139 6 $1736
3140 3 $1483
3141 6 $1184
3142 6 $1985
3143 3 $1425
3144 7 $1386
3145 1 $1317
3146 3 $1985
3147 2 $1649
3148 6 $1217
3149 5 $1781
3150 5 $1431
3151 1 $1984
3152 5 $1889
3153 3 $1677
3154 7 $1191
3155 5 $1675
3156 1 $1985
3157 4 $1428
3158 6 $1834
3159 2 $1563
3160 2 $1715
3161 3 $1324
3162 4 $1515
3163 4 $1567
3164 5 $1109
3165 5 $1565
3166 7 $1955
3167 1 $1494
3168 4 $1010
3169 4 $1922
3170 1 $1821
3171 7 $1950
3172 3 $1382
3173 2 $1650
3174 2 $1899
3175 6 $1953
3176 4 $1430
3177 2 $1968
3178 3 $1591
3179 6 $1650
3180 6 $1165
3181 4 $1859
3182 7 $1283
3183 5 $1900
3184 2 $1024
3185 5 $1886
3186 1 $1642
3187 2 $1019
3188 6 $1483
3189 1 $1345
3190 1 $1028
3191 4 $1408
3192 4 $1241
3193 1 $1967
3194 2 $1526
3195 7 $1802
3196 1 $1657
3197 2 $1102
3198 3 $1919
3199 1 $1920
3200 4 $1955
3201 4 $1851
3202 3 $1932
3203 1 $1768
3204 1 $1327
3205 6 $1595
3206 4 $1541
3207 7 $1251
3208 3 $1559
3209 2 $1930
3210 5 $1174
3211 2 $1734
3212 7 $1087
3213 3 $1088
3214 3 $1072
3215 7 $1779
3216 4 $1292
3217 6 $1215
3218 5 $1589
3219 3 $1662
3220 1 $1811
3221 6 $1670
3222 2 $1607
3223 3 $1841
3224 6 $1413
3225 4 $1353
3226 2 $1634
3227 5 $1592
3228 3 $1818
3229 4 $1959
3230 2 $1333
3231 5 $1133
3232 6 $1450
3233 1 $1034
3234 2 $1749
3235 4 $1597
3236 3 $1061
3237 4 $1123
3238 2 $1473
3239 4 $1737
3240 3 $1837
3241 6 $1548
3242 6 $1383
3243 6 $1022
3244 6 $1671
3245 6 $1748
3246 4 $1302
3247 7 $1214
3248 7 $1006
3249 4 $1182
3250 7 $1162
3251 4 $1741
3252 1 $1599
3253 3 $1930
3254 3 $1628
3255 2 $1236
3256 1 $1486
3257 1 $1250
3258 5 $1679
3259 4 $1713
3260 7 $1399
3261 4 $1606
3262 1 $1660
3263 3 $1917
3264 6 $1230
3265 5 $1721
3266 6 $1358
3267 1 $1461
3268 5 $1409
3269 7 $1418
3270 2 $1639
3271 6 $1906
3272 4 $1480
3273 5 $1781
3274 7 $1553
3275 3 $1785
3276 6 $1451
3277 7 $1039
3278 3 $1398
3279 7 $1947
3280 1 $1324
3281 2 $1229
3282 5 $1408
3283 5 $1934
3284 6 $1865
3285 6 $1037
3286 4 $1922
3287 2 $1283
3288 6 $1100
3289 4 $1811
3290 1 $1653
3291 4 $1398
3292 5 $1667
3293 4 $1437
3294 1 $1516
3295 4 $1209
3296 2 $1648
3297 2 $1008
3298 3 $1233
3299 5 $1536
3300 2 $1809
3301 6 $1353
3302 2 $1133
3303 6 $1174
3304 2 $1785
3305 5 $1669
3306 6 $1868
3307 3 $1911
3308 3 $1349
3309 3 $1546
3310 7 $1398
3311 6 $1109
3312 6 $1024
3313 3 $1643
3314 7 $1224
3315 4 $1379
3316 3 $1240
3317 3 $1287
3318 5 $1777
3319 5 $1821
3320 6 $1207
3321 3 $1035
3322 4 $1933
3323 1 $1190
3324 1 $1963
3325 3 $1459
3326 1 $1133
3327 7 $1791
3328 2 $1670
3329 6 $1141
3330 5 $1693
3331 3 $1847
3332 4 $1855
3333 1 $1879
3334 2 $1133
3335 4 $1038
3336 7 $1199
3337 7 $1708
3338 5 $1128
3339 4 $1137
3340 6 $1668
3341 3 $1163
3342 1 $1960
3343 7 $1673
3344 7 $1498
3345 3 $1328
3346 6 $1889
3347 6 $1292
3348 5 $1509
3349 6 $1057
3350 1 $1561
3351 7 $1074
3352 4 $1984
3353 2 $1074
3354 3 $1510
3355 4 $1553
3356 2 $1553
3357 3 $1761
3358 6 $1360
3359 4 $1369
3360 1 $1114
3361 7 $1218
3362 3 $1210
3363 1 $1801
3364 5 $1986
3365 3 $1332
3366 1 $1966
3367 7 $1913
3368 2 $1018
3369 6 $1939
3370 6 $1750
3371 3 $1581
3372 5 $1097
3373 4 $1476
3374 7 $1892
3375 5 $1769
3376 3 $1056
3377 5 $1108
3378 2 $1298
3379 1 $1503
3380 7 $1534
3381 2 $1874
3382 4 $1795
3383 4 $1346
3384 4 $1918
3385 5 $1928
3386 2 $1760
3387 4 $1799
3388 3 $1012
3389 5 $1118
3390 7 $1428
3391 7 $1727
3392 7 $1483
3393 4 $1718
3394 1 $1873
3395 6 $1958
3396 1 $1562
3397 4 $1201
3398 4 $1576
3399 1 $1831
3400 1 $1458
3401 4 $1321
3402 5 $1301
3403 3 $1285
3404 3 $1170
3405 7 $1149
3406 3 $1616
3407 7 $1371
3408 4 $1324
3409 6 $1120
3410 2 $1966
3411 3 $1998
3412 1 $1869
3413 6 $1418
3414 5 $1614
3415 1 $1862
3416 4 $1113
3417 2 $1981
3418 2 $1908
3419 1 $1857
3420 4 $1604
3421 3 $1385
3422 2 $1417
3423 5 $1799
3424 1 $1130
3425 1 $1506
3426 7 $1385
3427 6 $1958
3428 7 $1256
3429 1 $1053
3430 2 $1291
3431 2 $1904
3432 2 $1048
3433 4 $1430
3434 5 $1197
3435 4 $1601
3436 3 $1041
3437 2 $1764
3438 3 $1638
3439 6 $1609
3440 1 $1613
3441 1 $1187
3442 1 $1786
3443 1 $1376
3444 2 $1377
3445 1 $1449
3446 7 $1770
3447 5 $1693
3448 3 $1593
3449 4 $1770
3450 2 $1329
3451 6 $1805
3452 1 $1673
3453 4 $1341
3454 4 $1095
3455 1 $1139
3456 5 $1485
3457 4 $1060
3458 3 $1602
3459 5 $1594
3460 6 $1658
3461 2 $1608
3462 4 $1288
3463 2 $1932
3464 4 $1771
3465 7 $1226
3466 3 $1774
3467 1 $1799
3468 1 $1549
3469 5 $1755
3470 7 $1149
3471 5 $1459
3472 1 $1315
3473 6 $1445
3474 3 $1808
3475 2 $1621
3476 4 $1611
3477 6 $1880
3478 7 $1399
3479 7 $1063
3480 1 $1230
3481 7 $1142
3482 4 $1783
3483 5 $1341
3484 1 $1948
3485 3 $1071
3486 1 $1775
3487 3 $1914
3488 2 $1670
3489 1 $1246
3490 3 $1228
3491 4 $1273
3492 5 $1978
3493 2 $1970
3494 6 $1430
3495 1 $1796
3496 1 $1155
3497 3 $1518
3498 7 $1449
3499 5 $1233
3500 5 $1847
3501 5 $1169
3502 6 $1189
3503 4 $1047
3504 4 $1975
3505 7 $1719
3506 5 $1927
3507 2 $1334
3508 7 $1665
3509 2 $1238
3510 4 $1022
3511 5 $1812
3512 7 $1281
3513 4 $1169
3514 4 $1878
3515 3 $1777
3516 6 $1076
3517 7 $1585
3518 2 $1456
3519 2 $1676
3520 4 $1652
3521 2 $1775
3522 5 $1584
3523 2 $1555
3524 2 $1040
3525 2 $1859
3526 1 $1125
3527 6 $1527
3528 4 $1649
3529 7 $1033
3530 7 $1021
3531 1 $1710
3532 1 $1469
3533 3 $1438
3534 3 $1183
3535 6 $1351
3536 5 $1983
3537 3 $1679
3538 3 $1655
3539 2 $1961
3540 4 $1093
3541 6 $1667
3542 5 $1005
3543 5 $1629
3544 1 $1617
3545 2 $1932
3546 6 $1606
3547 1 $1039
3548 1 $1249
3549 6 $1506
3550 1 $1754
3551 7 $1361
3552 3 $1016
3553 6 $1279
3554 1 $1908
3555 6 $1313
3556 2 $1050
3557 5 $1844
3558 1 $1702
3559 6 $1006
3560 6 $1315
3561 1 $1811
3562 5 $1674
3563 6 $1046
3564 3 $1105
3565 4 $1147
3566 2 $1634
3567 2 $1498
3568 6 $1653
3569 7 $1847
3570 7 $1656
3571 4 $1872
3572 2 $1526
3573 4 $1695
3574 5 $1103
3575 6 $1353
3576 3 $1495
3577 1 $1734
3578 2 $1344
3579 3 $1977
3580 4 $1116
3581 2 $1842
3582 6 $1365
3583 7 $1522
3584 4 $1496
3585 2 $1471
3586 1 $1523
3587 4 $1105
3588 4 $1834
3589 5 $1644
3590 7 $1872
3591 3 $1031
3592 6 $1603
3593 7 $1580
3594 4 $1977
3595 4 $1049
3596 1 $1058
3597 3 $1959
3598 3 $1502
3599 3 $1465
3600 6 $1609
3601 7 $1894
3602 2 $1443
3603 2 $1283
3604 3 $1213
3605 2 $1235
3606 5 $1985
3607 7 $1440
3608 2 $1017
3609 3 $1423
3610 2 $1315
3611 2 $1518
3612 1 $1636
3613 2 $1449
3614 6 $1906
3615 4 $1094
3616 5 $1678
3617 4 $1214
3618 7 $1898
3619 1 $1109
3620 1 $1599
3621 5 $1131
3622 7 $1963
3623 3 $1716
3624 3 $1808
3625 2 $1917
3626 7 $1344
3627 4 $1840
3628 4 $1480
3629 3 $1690
3630 7 $1291
3631 2 $1378
3632 7 $1393
3633 6 $1645
3634 4 $1679
3635 5 $1792
3636 6 $1321
3637 7 $1581
3638 4 $1636
3639 4 $1731
3640 5 $1209
3641 7 $1303
3642 4 $1895
3643 4 $1975
3644 2 $1921
3645 3 $1104
3646 1 $1608
3647 4 $1093
3648 4 $1297
3649 1 $1988
3650 1 $1122
3651 3 $1580
3652 4 $1937
3653 5 $1490
3654 5 $1383
3655 4 $1860
3656 3 $1147
3657 5 $1013
3658 3 $1345
3659 6 $1154
3660 4 $1444
3661 6 $1772
3662 1 $1425
3663 1 $1983
3664 6 $1167
3665 1 $1234
3666 4 $1876
3667 7 $1153
3668 5 $1865
3669 6 $1112
3670 5 $1425
3671 6 $1680
3672 7 $1710
3673 7 $1758
3674 1 $1845
3675 1 $1042
3676 5 $1467
3677 2 $1126
3678 1 $1087
3679 6 $1992
3680 5 $1938
3681 1 $1657
3682 3 $1900
3683 5 $1695
3684 6 $1521
3685 1 $1055
3686 3 $1996
3687 6 $1575
3688 6 $1915
3689 1 $1676
3690 1 $1395
3691 6 $1879
3692 7 $1869
3693 2 $1253
3694 1 $1713
3695 6 $1871
3696 6 $1706
3697 1 $1719
3698 3 $1931
3699 3 $1661
3700 7 $1480
3701 6 $1353
3702 5 $1639
3703 1 $1129
3704 6 $1472
3705 5 $1021
3706 6 $1772
3707 4 $1801
3708 2 $1386
3709 3 $1827
3710 6 $1040
3711 2 $1574
3712 3 $1799
3713 4 $1702
3714 4 $1551
3715 6 $1244
3716 3 $1478
3717 2 $1084
3718 1 $1979
3719 2 $1430
3720 3 $1791
3721 5 $1634
3722 5 $1063
3723 2 $1520
3724 6 $1523
3725 5 $1102
3726 4 $1810
3727 6 $1555
3728 3 $1938
3729 2 $1772
3730 7 $1890
3731 2 $1836
3732 5 $1179
3733 6 $1986
3734 7 $1647
3735 5 $1533
3736 6 $1672
3737 7 $1011
3738 2 $1668
3739 2 $1179
3740 3 $1175
3741 3 $1527
3742 5 $1849
3743 7 $1007
3744 6 $1770
3745 5 $1217
3746 4 $1084
3747 5 $1637
3748 4 $1712
3749 2 $1377
3750 4 $1891
3751 7 $1768
3752 6 $1610
3753 5 $1464
3754 3 $1531
3755 4 $1963
3756 7 $1630
3757 7 $1366
3758 7 $1757
3759 3 $1625
3760 3 $1872
3761 2 $1447
3762 5 $1883
3763 5 $1511
3764 1 $1364
3765 7 $1001
3766 4 $1967
3767 6 $1965
3768 5 $1797
3769 5 $1960
3770 3 $1909
3771 5 $1256
3772 6 $1409
3773 2 $1003
3774 5 $1980
3775 4 $1843
3776 3 $1282
3777 7 $1452
3778 6 $1049
3779 2 $1897
3780 6 $1351
3781 3 $1188
3782 6 $1212
3783 7 $1157
3784 3 $1817
3785 3 $1589
3786 5 $1601
3787 3 $1714
3788 3 $1191
3789 7 $1709
3790 6 $1976
3791 3 $1595
3792 5 $1434
3793 2 $1650
3794 2 $1189
3795 1 $1669
3796 1 $1050
3797 2 $1848
3798 5 $1737
3799 6 $1879
3800 7 $1951
3801 4 $1789
3802 2 $1487
3803 5 $1961
3804 3 $1352
3805 2 $1110
3806 1 $1280
3807 2 $1786
3808 7 $1456
3809 3 $1503
3810 4 $1920
3811 6 $1201
3812 7 $1299
3813 2 $1319
3814 4 $1735
3815 2 $1709
3816 5 $1942
3817 3 $1121
3818 6 $1456
3819 2 $1893
3820 7 $1661
3821 4 $1716
3822 4 $1741
3823 1 $1824
3824 4 $1402
3825 6 $1668
3826 6 $1705
3827 4 $1142
3828 6 $1869
3829 4 $1519
3830 2 $1708
3831 7 $1885
3832 2 $1158
3833 6 $1497
3834 1 $1011
3835 2 $1373
3836 4 $1349
3837 2 $1856
3838 2 $1982
3839 4 $1853
3840 7 $1258
3841 7 $1848
3842 3 $1784
3843 7 $1339
3844 6 $1685
3845 3 $1257
3846 5 $1170
3847 6 $1457
3848 6 $1200
3849 5 $1716
3850 4 $1897
3851 1 $1770
3852 5 $1576
3853 6 $1050
3854 4 $1475
3855 5 $1289
3856 5 $1167
3857 3 $1173
3858 3 $1710
3859 1 $1914
3860 1 $1605
3861 1 $1692
3862 3 $1249
3863 4 $1671
3864 1 $1291
3865 3 $1468
3866 1 $1472
3867 2 $1188
3868 1 $1662
3869 6 $1865
3870 2 $1700
3871 7 $1747
3872 6 $1506
3873 3 $1353
3874 6 $1113
3875 6 $1953
3876 5 $1412
3877 6 $1338
3878 6 $1847
3879 1 $1047
3880 1 $1655
3881 5 $1255
3882 6 $1106
3883 2 $1467
3884 4 $1856
3885 3 $1295
3886 3 $1218
3887 3 $1116
3888 1 $1042
3889 3 $1989
3890 6 $1868
3891 3 $1817
3892 4 $1123
3893 6 $1129
3894 2 $1646
3895 1 $1075
3896 3 $1604
3897 5 $1470
3898 3 $1247
3899 2 $1718
3900 6 $1869
3901 3 $1378
3902 2 $1900
3903 7 $1020
3904 3 $1703
3905 2 $1497
3906 6 $1228
3907 4 $1602
3908 3 $1609
3909 2 $1050
3910 2 $1942
3911 4 $1513
3912 1 $1219
3913 5 $1393
3914 3 $1653
3915 3 $1255
3916 1 $1806
3917 2 $1115
3918 3 $1395
3919 3 $1051
3920 1 $1650
3921 2 $1253
3922 2 $1691
3923 2 $1604
3924 3 $1974
3925 6 $1741
3926 5 $1269
3927 3 $1323
3928 3 $1971
3929 1 $1887
3930 1 $1094
3931 5 $1892
3932 3 $1233
3933 6 $1786
3934 6 $1430
3935 4 $1073
3936 4 $1434
3937 3 $1145
3938 3 $1832
3939 6 $1927
3940 5 $1714
3941 3 $1194
3942 3 $1781
3943 5 $1735
3944 2 $1493
3945 2 $1474
3946 4 $1185
3947 7 $1718
3948 6 $1344
3949 3 $1327
3950 2 $1277
3951 5 $1685
3952 3 $1303
3953 5 $1252
3954 7 $1307
3955 3 $1106
3956 4 $1022
3957 5 $1289
3958 1 $1637
3959 2 $1718
3960 1 $1880
3961 4 $1488
3962 3 $1855
3963 5 $1557
3964 1 $1099
3965 6 $1561
3966 4 $1520
3967 5 $1225
3968 6 $1433
3969 3 $1007
3970 6 $1549
3971 5 $1486
3972 6 $1785
3973 7 $1025
3974 2 $1078
3975 1 $1975
3976 5 $1156
3977 3 $1690
3978 5 $1807
3979 6 $1664
3980 2 $1777
3981 4 $1129
3982 1 $1056
3983 4 $1531
3984 1 $1393
3985 5 $1194
3986 5 $1533
3987 3 $1307
3988 4 $1051
3989 7 $1219
3990 4 $1887
3991 4 $1716
3992 7 $1737
3993 3 $1656
3994 2 $1289
3995 5 $1873
3996 2 $1194
3997 5 $1328
3998 2 $1788
3999 2 $1412
4000 7 $1518
4001 7 $1717
4002 4 $1315
4003 3 $1921
4004 7 $1797
4005 5 $1111
4006 4 $1392
4007 3 $1651
4008 7 $1504
4009 6 $1618
4010 7 $1165
4011 3 $1446
4012 5 $1022
4013 4 $1571
4014 6 $1236
4015 2 $1947
4016 1 $1464
4017 2 $1600
4018 4 $1496
4019 1 $1808
4020 4 $1694
4021 2 $1525
4022 6 $1001
4023 6 $1693
4024 3 $1264
4025 1 $1159
4026 3 $1772
4027 1 $1688
4028 1 $1398
4029 3 $1861
4030 5 $1697
4031 2 $1186
4032 6 $1656
4033 6 $1986
4034 5 $1987
4035 3 $1023
4036 3 $1342
4037 5 $1405
4038 4 $1667
4039 7 $1026
4040 2 $1986
4041 2 $1985
4042 2 $1061
4043 4 $1335
4044 4 $1385
4045 5 $1085
4046 3 $1777
4047 6 $1679
4048 4 $1909
4049 2 $1140
4050 4 $1476
4051 1 $1824
4052 5 $1734
4053 6 $1118
4054 3 $1885
4055 1 $1570
4056 2 $1100
4057 3 $1382
4058 2 $1529
4059 3 $1163
4060 3 $1207
4061 3 $1250
4062 3 $1863
4063 4 $1715
4064 7 $1736
4065 5 $1678
4066 3 $1500
4067 3 $1201
4068 4 $1093
4069 2 $1545
4070 3 $1231
4071 4 $1748
4072 1 $1664
4073 4 $1831
4074 4 $1446
4075 2 $1451
4076 2 $1016
4077 2 $1717
4078 5 $1184
4079 2 $1318
4080 2 $1271
4081 5 $1104
4082 4 $1370
4083 3 $1187
4084 7 $1035
4085 5 $1527
4086 1 $1290
4087 2 $1186
4088 3 $1734
4089 1 $1092
4090 3 $1934
4091 5 $1912
4092 7 $1197
4093 3 $1502
4094 3 $1750
4095 7 $1784
4096 4 $1420
4097 2 $1274
4098 1 $1710
4099 5 $1013
4100 5 $1640
4101 4 $1949
4102 4 $1029
4103 4 $1314
4104 6 $1988
4105 6 $1116
4106 5 $1121
4107 6 $1299
4108 3 $1989
4109 4 $1437
4110 7 $1648
4111 1 $1377
4112 3 $1710
4113 3 $1931
4114 6 $1688
4115 5 $1417
4116 2 $1149
4117 5 $1894
4118 1 $1121
4119 7 $1765
4120 5 $1572
4121 2 $1673
4122 6 $1981
4123 3 $1330
4124 2 $1633
4125 7 $1010
4126 1 $1975
4127 4 $1864
4128 6 $1598
4129 1 $1637
4130 1 $1321
4131 5 $1101
4132 7 $1961
4133 6 $1257
4134 3 $1620
4135 4 $1907
4136 5 $1021
4137 3 $1185
4138 4 $1268
4139 4 $1997
4140 2 $1224
4141 2 $1292
4142 6 $1442
4143 2 $1214
4144 6 $1003
4145 3 $1142
4146 3 $1864
4147 2 $1810
4148 7 $1941
4149 6 $1285
4150 2 $1360
4151 6 $1379
4152 4 $1336
4153 6 $1893
4154 5 $1046
4155 7 $1262
4156 7 $1858
4157 6 $1244
4158 3 $1001
4159 2 $1203
4160 7 $1237
4161 1 $1247
4162 6 $1422
4163 1 $1256
4164 1 $1112
4165 3 $1883
4166 1 $1484
4167 1 $1791
4168 2 $1444
4169 5 $1461
4170 6 $1689
4171 2 $1819
4172 2 $1255
4173 4 $1946
4174 4 $1220
4175 7 $1575
4176 6 $1309
4177 4 $1407
4178 1 $1641
4179 3 $1887
4180 6 $1426
4181 3 $1307
4182 1 $1913
4183 7 $1485
4184 1 $1665
4185 2 $1136
4186 3 $1119
4187 4 $1637
4188 2 $1368
4189 4 $1598
4190 6 $1444
4191 6 $1274
4192 2 $1154
4193 6 $1200
4194 1 $1483
4195 1 $1887
4196 7 $1299
4197 4 $1701
4198 2 $1414
4199 4 $1846
4200 6 $1551
4201 6 $1288
4202 6 $1567
4203 7 $1652
4204 6 $1772
4205 6 $1984
4206 5 $1560
4207 4 $1819
4208 5 $1404
4209 7 $1552
4210 1 $1684
4211 4 $1479
4212 2 $1772
4213 1 $1024
4214 3 $1763
4215 5 $1922
4216 2 $1815
4217 1 $1171
4218 5 $1578
4219 6 $1536
4220 1 $1508
4221 6 $1543
4222 3 $1536
4223 2 $1627
4224 6 $1851
4225 1 $1745
4226 4 $1826
4227 3 $1552
4228 1 $1348
4229 4 $1662
4230 7 $1353
4231 6 $1337
4232 5 $1328
4233 2 $1626
4234 1 $1471
4235 7 $1233
4236 4 $1310
4237 3 $1069
4238 6 $1349
4239 6 $1923
4240 2 $1448
4241 5 $1713
4242 2 $1271
4243 4 $1035
4244 7 $1459
4245 7 $1581
4246 4 $1582
4247 3 $1146
4248 3 $1659
4249 7 $1613
4250 6 $1646
4251 6 $1654
4252 6 $1540
4253 1 $1240
4254 4 $1358
4255 4 $1896
4256 2 $1146
4257 4 $1976
4258 2 $1691
4259 3 $1125
4260 5 $1234
4261 4 $1870
4262 7 $1397
4263 1 $1678
4264 1 $1303
4265 3 $1516
4266 6 $1047
4267 3 $1449
4268 5 $1790
4269 7 $1785
4270 2 $1395
4271 2 $1013
4272 7 $1985
4273 1 $1944
4274 7 $1300
4275 7 $1689
4276 3 $1424
4277 2 $1505
4278 2 $1587
4279 4 $1998
4280 2 $1684
4281 4 $1766
4282 3 $1699
4283 1 $1536
4284 4 $1810
4285 3 $1391
4286 1 $1141
4287 3 $1937
4288 2 $1774
4289 6 $1375
4290 5 $1628
4291 6 $1166
4292 2 $1013
4293 6 $1046
4294 7 $1722
4295 3 $1903
4296 6 $1922
4297 3 $1685
4298 5 $1633
4299 1 $1804
4300 6 $1282
4301 4 $1564
4302 3 $1587
4303 6 $1835
4304 1 $1176
4305 7 $1919
4306 6 $1283
4307 4 $1659
4308 7 $1146
4309 6 $1940
4310 5 $1449
4311 1 $1932
4312 3 $1530
4313 1 $1479
4314 6 $1498
4315 7 $1644
4316 2 $1045
4317 6 $1158
4318 5 $1269
4319 7 $1148
4320 5 $1319
4321 5 $1806
4322 7 $1879
4323 4 $1081
4324 6 $1662
4325 6 $1756
4326 6 $1424
4327 4 $1124
4328 7 $1251
4329 5 $1709
4330 6 $1412
4331 4 $1186
4332 1 $1940
4333 5 $1455
4334 6 $1500
4335 6 $1748
4336 3 $1028
4337 4 $1925
4338 1 $1882
4339 2 $1544
4340 3 $1793
4341 4 $1182
4342 1 $1152
4343 4 $1022
4344 5 $1453
4345 4 $1287
4346 7 $1881
4347 5 $1060
4348 5 $1126
4349 5 $1781
4350 2 $1438
4351 7 $1315
4352 3 $1518
4353 6 $1747
4354 5 $1531
4355 5 $1664
4356 6 $1236
4357 5 $1490
4358 4 $1912
4359 5 $1371
4360 5 $1737
4361 4 $1780
4362 6 $1417
4363 4 $1099
4364 3 $1067
4365 6 $1888
4366 1 $1022
4367 3 $1496
4368 1 $1469
4369 1 $1634
4370 6 $1379
4371 5 $1792
4372 3 $1613
4373 5 $1376
4374 5 $1832
4375 6 $1723
4376 2 $1326
4377 7 $1574
4378 3 $1610
4379 5 $1943
4380 3 $1780
4381 7 $1114
4382 2 $1497
4383 4 $1909
4384 5 $1722
4385 7 $1064
4386 4 $1521
4387 2 $1553
4388 3 $1711
4389 5 $1583
4390 6 $1049
4391 7 $1062
4392 7 $1676
4393 3 $1475
4394 6 $1598
4395 3 $1664
4396 6 $1583
4397 2 $1681
4398 4 $1193
4399 5 $1440
4400 1 $1276
4401 4 $1102
4402 7 $1901
4403 3 $1540
4404 2 $1007
4405 1 $1281
4406 7 $1010
4407 6 $1644
4408 2 $1403
4409 5 $1108
4410 5 $1061
4411 4 $1373
4412 1 $1119
4413 5 $1167
4414 4 $1213
4415 3 $1946
4416 5 $1363
4417 6 $1468
4418 3 $1471
4419 1 $1079
4420 3 $1911
4421 6 $1756
4422 4 $1243
4423 2 $1692
4424 4 $1284
4425 2 $1985
4426 4 $1989
4427 7 $1384
4428 6 $1793
4429 2 $1266
4430 4 $1205
4431 7 $1555
4432 4 $1608
4433 6 $1234
4434 3 $1496
4435 4 $1234
4436 5 $1990
4437 6 $1345
4438 6 $1821
4439 2 $1471
4440 6 $1790
4441 3 $1505
4442 5 $1456
4443 1 $1047
4444 3 $1871
4445 1 $1562
4446 5 $1898
4447 5 $1131
4448 7 $1329
4449 5 $1592
4450 1 $1319
4451 3 $1111
4452 3 $1276
4453 7 $1576
4454 3 $1359
4455 6 $1677
4456 2 $1090
4457 6 $1654
4458 1 $1541
4459 5 $1147
4460 6 $1616
4461 5 $1457
4462 6 $1331
4463 2 $1737
4464 1 $1009
4465 5 $1085
4466 3 $1292
4467 2 $1244
4468 1 $1962
4469 6 $1560
4470 5 $1017
4471 7 $1046
4472 7 $1511
4473 4 $1302
4474 5 $1941
4475 1 $1276
4476 7 $1148
4477 3 $1542
4478 5 $1553
4479 7 $1246
4480 4 $1053
4481 7 $1146
4482 2 $1152
4483 7 $1443
4484 2 $1399
4485 5 $1531
4486 4 $1803
4487 4 $1514
4488 7 $1077
4489 2 $1674
4490 2 $1823
4491 3 $1226
4492 5 $1356
4493 1 $1456
4494 3 $1226
4495 4 $1962
4496 6 $1103
4497 5 $1559
4498 7 $1338
4499 5 $1018
4500 1 $1172
4501 2 $1839
4502 7 $1734
4503 5 $1824
4504 1 $1436
4505 1 $1882
4506 6 $1971
4507 5 $1524
4508 6 $1447
4509 6 $1728
4510 5 $1024
4511 4 $1461
4512 5 $1422
4513 5 $1996
4514 6 $1442
4515 7 $1250
4516 7 $1487
4517 5 $1957
4518 3 $1673
4519 4 $1386
4520 5 $1005
4521 6 $1390
4522 7 $1481
4523 3 $1971
4524 1 $1165
4525 5 $1542
4526 3 $1699
4527 4 $1823
4528 7 $1202
4529 6 $1481
4530 1 $1529
4531 3 $1690
4532 2 $1786
4533 7 $1477
4534 4 $1493
4535 1 $1646
4536 7 $1823
4537 6 $1013
4538 3 $1458
4539 4 $1335
4540 1 $1879
4541 2 $1130
4542 1 $1545
4543 7 $1096
4544 6 $1868
4545 2 $1621
4546 3 $1510
4547 7 $1324
4548 7 $1365
4549 7 $1574
4550 3 $1145
4551 4 $1021
4552 1 $1858
4553 6 $1457
4554 7 $1085
4555 3 $1888
4556 1 $1884
4557 3 $1915
4558 4 $1172
4559 5 $1599
4560 3 $1467
4561 7 $1217
4562 3 $1377
4563 4 $1942
4564 3 $1286
4565 1 $1850
4566 6 $1661
4567 2 $1199
4568 1 $1543
4569 2 $1312
4570 2 $1627
4571 4 $1406
4572 7 $1404
4573 6 $1371
4574 2 $1963
4575 4 $1085
4576 6 $1743
4577 5 $1885
4578 7 $1595
4579 3 $1305
4580 5 $1239
4581 2 $1487
4582 6 $1313
4583 2 $1603
4584 2 $1933
4585 6 $1755
4586 4 $1586
4587 1 $1632
4588 5 $1896
4589 7 $1624
4590 1 $1151
4591 7 $1114
4592 1 $1905
4593 4 $1361
4594 5 $1779
4595 7 $1909
4596 5 $1607
4597 4 $1254
4598 4 $1990
4599 5 $1859
4600 1 $1084
4601 7 $1314
4602 6 $1084
4603 3 $1816
4604 7 $1671
4605 7 $1923
4606 6 $1511
4607 5 $1214
4608 2 $1552
4609 7 $1269
4610 6 $1017
4611 6 $1754
4612 2 $1703
4613 2 $1879
4614 5 $1355
4615 1 $1629
4616 6 $1677
4617 6 $1940
4618 1 $1017
4619 1 $1708
4620 5 $1273
4621 3 $1868
4622 5 $1827
4623 5 $1880
4624 7 $1444
4625 4 $1816
4626 2 $1013
4627 2 $1807
4628 6 $1998
4629 2 $1602
4630 1 $1384
4631 3 $1546
4632 5 $1087
4633 5 $1403
4634 7 $1591
4635 3 $1261
4636 5 $1638
4637 4 $1946
4638 5 $1267
4639 6 $1650
4640 2 $1342
4641 5 $1868
4642 4 $1248
4643 5 $1310
4644 7 $1428
4645 3 $1854
4646 6 $1366
4647 3 $1745
4648 6 $1386
4649 3 $1357
4650 7 $1560
4651 6 $1467
4652 2 $1167
4653 2 $1463
4654 3 $1008
4655 7 $1026
4656 1 $1861
4657 1 $1639
4658 5 $1745
4659 5 $1237
4660 3 $1089
4661 3 $1653
4662 3 $1364
4663 1 $1100
4664 3 $1807
4665 6 $1579
4666 1 $1756
4667 6 $1285
4668 5 $1419
4669 5 $1145
4670 5 $1001
4671 5 $1481
4672 6 $1617
4673 7 $1930
4674 1 $1377
4675 6 $1533
4676 1 $1006
4677 1 $1133
4678 2 $1754
4679 7 $1986
4680 2 $1509
4681 5 $1197
4682 4 $1785
4683 1 $1181
4684 7 $1651
4685 5 $1073
4686 2 $1815
4687 7 $1759
4688 4 $1315
4689 1 $1965
4690 5 $1254
4691 2 $1646
4692 6 $1666
4693 1 $1319
4694 5 $1529
4695 5 $1746
4696 6 $1348
4697 6 $1994
4698 2 $1337
4699 7 $1353
4700 7 $1510
4701 5 $1679
4702 7 $1793
4703 7 $1107
4704 6 $1193
4705 6 $1551
4706 7 $1339
4707 7 $1295
4708 1 $1414
4709 3 $1818
4710 4 $1384
4711 2 $1229
4712 4 $1108
4713 2 $1804
4714 3 $1107
4715 2 $1738
4716 1 $1876
4717 4 $1282
4718 2 $1823
4719 5 $1975
4720 1 $1350
4721 2 $1617
4722 3 $1901
4723 3 $1170
4724 6 $1592
4725 7 $1128
4726 5 $1399
4727 4 $1787
4728 5 $1502
4729 5 $1649
4730 4 $1176
4731 4 $1008
4732 6 $1021
4733 5 $1788
4734 7 $1105
4735 6 $1081
4736 7 $1575
4737 4 $1212
4738 2 $1758
4739 2 $1925
4740 2 $1706
4741 5 $1863
4742 5 $1430
4743 6 $1507
4744 7 $1633
4745 1 $1370
4746 7 $1863
4747 2 $1874
4748 3 $1914
4749 6 $1755
4750 2 $1920
4751 5 $1882
4752 1 $1590
4753 6 $1270
4754 4 $1501
4755 7 $1257
4756 7 $1420
4757 4 $1993
4758 7 $1878
4759 7 $1215
4760 2 $1606
4761 4 $1695
4762 1 $1800
4763 3 $1482
4764 3 $1682
4765 5 $1328
4766 6 $1323
4767 2 $1338
4768 5 $1578
4769 3 $1543
4770 1 $1570
4771 5 $1062
4772 5 $1092
4773 3 $1604
4774 3 $1454
4775 2 $1237
4776 2 $1379
4777 7 $1472
4778 2 $1931
4779 3 $1246
4780 7 $1917
4781 1 $1307
4782 1 $1682
4783 5 $1377
4784 1 $1115
4785 3 $1441
4786 5 $1182
4787 6 $1275
4788 5 $1780
4789 2 $1672
4790 1 $1951
4791 3 $1102
4792 6 $1914
4793 1 $1900
4794 4 $1049
4795 2 $1319
4796 7 $1604
4797 6 $1308
4798 5 $1910
4799 7 $1430
4800 7 $1938
4801 4 $1491
4802 3 $1864
4803 1 $1266
4804 1 $1164
4805 2 $1759
4806 5 $1935
4807 1 $1146
4808 3 $1563
4809 4 $1301
4810 1 $1417
4811 3 $1589
4812 3 $1190
4813 4 $1371
4814 2 $1997
4815 3 $1435
4816 3 $1782
4817 4 $1572
4818 3 $1224
4819 4 $1673
4820 5 $1922
4821 5 $1079
4822 5 $1521
4823 7 $1905
4824 3 $1837
4825 1 $1881
4826 2 $1684
4827 1 $1448
4828 4 $1515
4829 2 $1351
4830 6 $1714
4831 7 $1526
4832 4 $1007
4833 2 $1917
4834 5 $1878
4835 6 $1409
4836 3 $1360
4837 1 $1434
4838 2 $1666
4839 4 $1419
4840 7 $1712
4841 6 $1201
4842 5 $1736
4843 7 $1791
4844 6 $1651
4845 7 $1761
4846 7 $1674
4847 2 $1416
4848 6 $1670
4849 4 $1182
4850 7 $1523
4851 6 $1586
4852 2 $1013
4853 2 $1510
4854 3 $1340
4855 1 $1463
4856 7 $1092
4857 7 $1173
4858 7 $1312
4859 5 $1715
4860 4 $1295
4861 2 $1465
4862 2 $1735
4863 7 $1945
4864 2 $1986
4865 3 $1838
4866 6 $1934
4867 3 $1052
4868 1 $1274
4869 6 $1580
4870 1 $1358
4871 5 $1550
4872 7 $1809
4873 6 $1596
4874 4 $1921
4875 3 $1588
4876 2 $1375
4877 3 $1911
4878 7 $1600
4879 7 $1296
4880 5 $1403
4881 5 $1479
4882 3 $1128
4883 4 $1462
4884 3 $1302
4885 4 $1339
4886 5 $1544
4887 6 $1464
4888 7 $1088
4889 1 $1392
4890 3 $1925
4891 2 $1050
4892 7 $1673
4893 7 $1738
4894 4 $1286
4895 3 $1855
4896 4 $1226
4897 4 $1583
4898 5 $1968
4899 2 $1370
4900 2 $1113
4901 7 $1301
4902 5 $1571
4903 5 $1957
4904 4 $1617
4905 6 $1831
4906 5 $1691
4907 6 $1405
4908 5 $1743
4909 2 $1636
4910 3 $1352
4911 4 $1972
4912 4 $1526
4913 7 $1983
4914 4 $1398
4915 2 $1902
4916 1 $1188
4917 7 $1864
4918 3 $1886
4919 5 $1516
4920 7 $1778
4921 4 $1074
4922 1 $1667
4923 7 $1765
4924 7 $1760
4925 1 $1947
4926 5 $1134
4927 5 $1808
4928 4 $1463
4929 5 $1631
4930 6 $1370
4931 6 $1619
4932 4 $1933
4933 4 $1549
4934 3 $1017
4935 2 $1135
4936 2 $1117
4937 1 $1865
4938 7 $1077
4939 2 $1209
4940 5 $1596
4941 6 $1368
4942 7 $1816
4943 3 $1187
4944 6 $1198
4945 2 $1599
4946 4 $1149
4947 6 $1889
4948 4 $1686
4949 1 $1996
4950 4 $1500
4951 6 $1308
4952 5 $1337
4953 3 $1835
4954 7 $1994
4955 4 $1554
4956 6 $1284
4957 2 $1715
4958 1 $1359
4959 7 $1972
4960 5 $1513
4961 2 $1847
4962 1 $1310
4963 4 $1743
4964 1 $1711
4965 7 $1429
4966 4 $1488
4967 7 $1500
4968 6 $1607
4969 2 $1506
4970 5 $1266
4971 5 $1888
4972 4 $1319
4973 6 $1924
4974 1 $1034
4975 1 $1765
4976 7 $1195
4977 2 $1150
4978 3 $1742
4979 7 $1255
4980 5 $1431
4981 5 $1496
4982 3 $1909
4983 5 $1679
4984 7 $1486
4985 4 $1212
4986 2 $1819
4987 6 $1499
4988 6 $1358
4989 3 $1282
4990 4 $1193
4991 7 $1900
4992 6 $1881
4993 1 $1709
4994 2 $1643
4995 1 $1999
4996 2 $1502
4997 3 $1892
4998 4 $1233
4999 2 $1317
5000 4 $1766
5001 2 $1946
5002 1 $1823
5003 4 $1947
5004 7 $1983
5005 3 $1966
5006 1 $1197
5007 3 $1218
5008 4 $1677
5009 2 $1308
5010 2 $1991
5011 4 $1752
5012 4 $1972
5013 6 $1506
5014 1 $1478
5015 3 $1853
5016 6 $1631
5017 2 $1820
5018 7 $1597
5019 4 $1527
5020 5 $1476
5021 6 $1273
5022 6 $1253
5023 7 $1295
5024 5 $1382
5025 5 $1083
5026 3 $1074
5027 6 $1562
5028 7 $1050
5029 2 $1042
5030 4 $1275
5031 4 $1233
5032 1 $1426
5033 5 $1298
5034 6 $1166
5035 3 $1273
5036 1 $1509
5037 7 $1080
5038 5 $1577
5039 1 $1675
5040 1 $1188
5041 1 $1594
5042 7 $1258
5043 6 $1212
5044 2 $1407
5045 3 $1092
5046 5 $1496
5047 4 $1903
5048 5 $1726
5049 4 $1195
5050 5 $1704
5051 2 $1719
5052 1 $1984
5053 2 $1926
5054 4 $1234
5055 3 $1173
5056 1 $1752
5057 1 $1448
5058 7 $1457
5059 3 $1456
5060 2 $1643
5061 3 $1600
5062 7 $1326
5063 4 $1280
5064 3 $1267
5065 5 $1217
5066 1 $1861
5067 1 $1137
5068 5 $1199
5069 6 $1698
5070 1 $1599
5071 5 $1111
5072 1 $1889
5073 4 $1678
5074 4 $1358
5075 7 $1852
5076 6 $1287
5077 3 $1397
5078 2 $1796
5079 6 $1283
5080 3 $1946
5081 4 $1954
5082 6 $1901
5083 5 $1769
5084 1 $1146
5085 2 $1867
5086 3 $1288
5087 5 $1239
5088 6 $1343
5089 5 $1668
5090 5 $1730
5091 6 $1625
5092 5 $1257
5093 5 $1900
5094 1 $1715
5095 6 $1338
5096 1 $1354
5097 6 $1815
5098 2 $1095
5099 7 $1126
5100 6 $1975
5101 6 $1098
5102 7 $1534
5103 7 $1886
5104 1 $1787
5105 5 $1386
5106 3 $1652
5107 4 $1039
5108 4 $1476
5109 7 $1414
5110 4 $1201
5111 2 $1835
5112 7 $1011
5113 1 $1864
5114 2 $1795
5115 5 $1223
5116 5 $1536
5117 5 $1103
5118 4 $1343
5119 2 $1044
5120 4 $1356
5121 2 $1688
5122 3 $1748
5123 2 $1326
5124 1 $1485
5125 6 $1896
5126 3 $1152
5127 6 $1671
5128 2 $1134
5129 1 $1516
5130 6 $1897
5131 6 $1277
5132 1 $1372
5133 5 $1250
5134 5 $1806
5135 3 $1744
5136 2 $1810
5137 6 $1085
5138 6 $1186
5139 3 $1221
5140 7 $1758
5141 1 $1589
5142 1 $1544
5143 5 $1246
5144 1 $1562
5145 4 $1077
5146 5 $1378
5147 2 $1544
5148 2 $1420
5149 7 $1259
5150 6 $1552
5151 3 $1987
5152 6 $1142
5153 3 $1675
5154 2 $1215
5155 3 $1734
5156 5 $1998
5157 3 $1692
5158 3 $1663
5159 1 $1696
5160 6 $1903
5161 2 $1433
5162 2 $1221
5163 1 $1480
5164 7 $1311
5165 2 $1969
5166 5 $1223
5167 6 $1046
5168 5 $1735
5169 2 $1368
5170 5 $1858
5171 7 $1535
5172 6 $1534
5173 5 $1684
5174 6 $1111
5175 3 $1125
5176 1 $1854
5177 6 $1593
5178 4 $1026
5179 1 $1044
5180 1 $1141
5181 6 $1573
5182 7 $1842
5183 5 $1159
5184 4 $1669
5185 2 $1805
5186 2 $1220
5187 3 $1873
5188 4 $1156
5189 4 $1006
5190 6 $1496
5191 2 $1676
5192 4 $1110
5193 1 $1221
5194 6 $1865
5195 5 $1702
5196 6 $1862
5197 4 $1151
5198 3 $1441
5199 7 $1303
5200 2 $1720
5201 3 $1138
5202 2 $1180
5203 2 $1428
5204 3 $1819
5205 1 $1610
5206 6 $1272
5207 7 $1927
5208 6 $1759
5209 7 $1564
5210 6 $1963
5211 2 $1420
5212 7 $1427
5213 6 $1671
5214 5 $1597
5215 3 $1957
5216 4 $1289
5217 7 $1710
5218 7 $1466
5219 3 $1919
5220 1 $1400
5221 5 $1408
5222 5 $1441
5223 6 $1492
5224 1 $1817
5225 3 $1224
5226 7 $1016
5227 5 $1367
5228 1 $1947
5229 3 $1149
5230 2 $1733
5231 2 $1107
5232 6 $1543
5233 6 $1682
5234 1 $1582
5235 7 $1500
5236 4 $1477
5237 5 $1895
5238 2 $1546
5239 3 $1723
5240 1 $1765
5241 2 $1223
5242 5 $1334
5243 4 $1983
5244 4 $1926
5245 6 $1792
5246 3 $1050
5247 2 $1703
5248 4 $1739
5249 4 $1871
5250 5 $1577
5251 7 $1897
5252 6 $1553
5253 7 $1153
5254 6 $1444
5255 2 $1942
5256 5 $1474
5257 3 $1402
5258 7 $1239
5259 2 $1443
5260 2 $1333
5261 6 $1626
5262 7 $1290
5263 5 $1202
5264 5 $1364
5265 7 $1443
5266 6 $1810
5267 6 $1735
5268 5 $1292
5269 1 $1684
5270 7 $1070
5271 7 $1972
5272 6 $1513
5273 4 $1257
5274 1 $1362
5275 5 $1429
5276 3 $1831
5277 7 $1561
5278 4 $1279
5279 3 $1564
5280 1 $1834
5281 3 $1150
5282 3 $1721
5283 4 $1214
5284 6 $1823
5285 3 $1809
5286 7 $1600
5287 1 $1908
5288 1 $1376
5289 1 $1332
5290 5 $1184
5291 4 $1587
5292 5 $1476
5293 3 $1630
5294 6 $1385
5295 4 $1717
5296 4 $1725
5297 2 $1170
5298 7 $1527
5299 3 $1734
5300 2 $1665
5301 7 $1504
5302 3 $1826
5303 3 $1279
5304 3 $1257
5305 6 $1130
5306 5 $1191
5307 4 $1070
5308 3 $1789
5309 4 $1984
5310 1 $1286
5311 2 $1092
5312 3 $1310
5313 6 $1030
5314 6 $1755
5315 5 $1430
5316 3 $1802
5317 5 $1097
5318 7 $1085
5319 2 $1653
5320 1 $1740
5321 1 $1205
5322 7 $1186
5323 4 $1534
5324 7 $1681
5325 3 $1129
5326 2 $1440
5327 6 $1859
5328 4 $1020
5329 1 $1073
5330 1 $1245
5331 6 $1711
5332 7 $1611
5333 4 $1267
5334 3 $1488
5335 3 $1334
5336 7 $1103
5337 4 $1763
5338 2 $1046
5339 2 $1603
5340 2 $1760
5341 4 $1687
5342 2 $1150
5343 2 $1456
5344 4 $1751
5345 6 $1604
5346 5 $1149
5347 4 $1953
5348 6 $1931
5349 6 $1351
5350 5 $1228
5351 4 $1593
5352 5 $1092
5353 6 $1597
5354 3 $1661
5355 3 $1172
5356 2 $1331
5357 3 $1404
5358 6 $1497
5359 7 $1292
5360 5 $1792
5361 1 $1439
5362 3 $1628
5363 1 $1268
5364 3 $1530
5365 5 $1501
5366 7 $1807
5367 5 $1208
5368 3 $1075
5369 3 $1387
5370 7 $1534
5371 2 $1107
5372 3 $1857
5373 2 $1142
5374 2 $1872
5375 7 $1742
5376 6 $1126
5377 4 $1353
5378 6 $1226
5379 1 $1040
5380 5 $1800
5381 1 $1525
5382 1 $1739
5383 2 $1225
5384 4 $1650
5385 2 $1700
5386 3 $1177
5387 2 $1774
5388 2 $1498
5389 3 $1653
5390 6 $1979
5391 6 $1456
5392 1 $1201
5393 3 $1172
5394 7 $1957
5395 5 $1389
5396 7 $1902
5397 3 $1351
5398 5 $1384
5399 2 $1893
5400 7 $1043
5401 7 $1690
5402 7 $1183
5403 5 $1510
5404 6 $1342
5405 4 $1507
5406 4 $1298
5407 5 $1584
5408 5 $1554
5409 4 $1142
5410 7 $1455
5411 4 $1634
5412 7 $1619
5413 6 $1258
5414 6 $1412
5415 3 $1964
5416 6 $1710
5417 6 $1859
5418 4 $1919
5419 1 $1690
5420 1 $1870
5421 1 $1926
5422 7 $1158
5423 6 $1248
5424 3 $1256
5425 6 $1096
5426 5 $1359
5427 6 $1904
5428 1 $1664
5429 5 $1112
5430 7 $1273
5431 5 $1693
5432 6 $1265
5433 4 $1136
5434 5 $1065
5435 1 $1892
5436 6 $1793
5437 7 $1256
5438 7 $1894
5439 5 $1302
5440 7 $1235
5441 3 $1218
5442 6 $1157
5443 5 $1759
5444 2 $1444
5445 1 $1967
5446 6 $1958
5447 6 $1074
5448 7 $1486
5449 1 $1265
5450 7 $1918
5451 2 $1194
5452 4 $1216
5453 7 $1423
5454 4 $1459
5455 6 $1642
5456 6 $1651
5457 3 $1580
5458 5 $1882
5459 5 $1799
5460 7 $1295
5461 5 $1928
5462 3 $1076
5463 6 $1833
5464 1 $1844
5465 6 $1645
5466 5 $1476
5467 5 $1182
5468 3 $1706
5469 2 $1012
5470 7 $1275
5471 4 $1598
5472 3 $1521
5473 6 $1910
5474 3 $1573
5475 2 $1824
5476 4 $1481
5477 4 $1523
5478 6 $1706
5479 6 $1203
5480 1 $1508
5481 2 $1494
5482 2 $1358
5483 5 $1406
5484 6 $1991
5485 1 $1958
5486 7 $1921
5487 3 $1001
5488 3 $1628
5489 1 $1215
5490 7 $1655
5491 3 $1673
5492 3 $1963
5493 2 $1095
5494 5 $1312
5495 5 $1152
5496 5 $1804
5497 4 $1450
5498 6 $1489
5499 1 $1458
5500 2 $1959
5501 5 $1783
5502 5 $1674
5503 6 $1722
5504 7 $1381
5505 6 $1464
5506 2 $1790
5507 4 $1619
5508 3 $1092
5509 7 $1878
5510 7 $1599
5511 2 $1384
5512 3 $1991
5513 3 $1506
5514 4 $1575
5515 3 $1596
5516 3 $1963
5517 1 $1197
5518 6 $1200
5519 3 $1834
5520 1 $1883
5521 6 $1905
5522 5 $1956
5523 3 $1742
5524 4 $1684
5525 4 $1222
5526 3 $1118
5527 6 $1338
5528 2 $1018
5529 2 $1470
5530 5 $1631
5531 4 $1651
5532 5 $1514
5533 3 $1193
5534 2 $1938
5535 4 $1145
5536 6 $1166
5537 6 $1978
5538 3 $1745
5539 4 $1322
5540 7 $1948
5541 1 $1368
5542 4 $1197
5543 3 $1727
5544 1 $1999
5545 3 $1110
5546 5 $1986
5547 5 $1886
5548 5 $1820
5549 2 $1955
5550 5 $1872
5551 1 $1503
5552 6 $1190
5553 3 $1707
5554 4 $1451
5555 6 $1375
5556 4 $1323
5557 3 $1140
5558 1 $1244
5559 7 $1231
5560 2 $1741
5561 2 $1705
5562 6 $1510
5563 2 $1606
5564 6 $1482
5565 4 $1483
5566 7 $1530
5567 4 $1419
5568 3 $1076
5569 5 $1699
5570 2 $1524
5571 6 $1188
5572 6 $1641
5573 6 $1481
5574 7 $1212
5575 6 $1034
5576 5 $1212
5577 6 $1265
5578 5 $1390
5579 3 $1547
5580 2 $1099
5581 7 $1664
5582 5 $1057
5583 5 $1214
5584 5 $1175
5585 1 $1755
5586 5 $1419
5587 6 $1018
5588 7 $1431
5589 1 $1225
5590 2 $1596
5591 2 $1056
5592 1 $1077
5593 3 $1308
5594 1 $1351
5595 5 $1484
5596 2 $1127
5597 3 $1276
5598 2 $1837
5599 7 $1945
5600 7 $1231
5601 6 $1491
5602 6 $1369
5603 7 $1394
5604 6 $1380
5605 4 $1786
5606 6 $1204
5607 1 $1185
5608 4 $1927
5609 4 $1779
5610 7 $1203
5611 1 $1163
5612 3 $1487
5613 5 $1909
5614 5 $1332
5615 3 $1865
5616 4 $1917
5617 4 $1875
5618 4 $1989
5619 6 $1041
5620 4 $1640
5621 1 $1005
5622 6 $1157
5623 7 $1116
5624 7 $1050
5625 1 $1510
5626 7 $1297
5627 2 $1366
5628 3 $1793
5629 5 $1812
5630 7 $1552
5631 4 $1273
5632 2 $1600
5633 2 $1299
5634 6 $1599
5635 3 $1730
5636 5 $1756
5637 3 $1770
5638 7 $1118
5639 7 $1978
5640 7 $1359
5641 6 $1148
5642 1 $1529
5643 3 $1542
5644 4 $1288
5645 4 $1585
5646 5 $1584
5647 1 $1200
5648 5 $1040
5649 6 $1738
5650 4 $1440
5651 4 $1660
5652 1 $1966
5653 2 $1625
5654 7 $1831
5655 3 $1403
5656 6 $1765
5657 7 $1463
5658 2 $1340
5659 1 $1947
5660 2 $1209
5661 1 $1715
5662 4 $1293
5663 1 $1109
5664 2 $1998
5665 3 $1522
5666 2 $1686
5667 5 $1606
5668 3 $1441
5669 7 $1001
5670 7 $1049
5671 5 $1527
5672 2 $1572
5673 6 $1645
5674 4 $1249
5675 6 $1037
5676 1 $1654
5677 2 $1044
5678 4 $1622
5679 3 $1809
5680 4 $1089
5681 6 $1865
5682 1 $1668
5683 1 $1241
5684 4 $1042
5685 6 $1148
5686 5 $1371
5687 7 $1222
5688 7 $1013
5689 6 $1703
5690 2 $1088
5691 7 $1540
5692 2 $1486
5693 2 $1762
5694 7 $1291
5695 5 $1004
5696 7 $1929
5697 1 $1104
5698 2 $1951
5699 2 $1045
5700 4 $1027
5701 1 $1968
5702 2 $1173
5703 7 $1863
5704 7 $1246
5705 7 $1765
5706 4 $1698
5707 7 $1919
5708 5 $1658
5709 7 $1182
5710 4 $1100
5711 7 $1438
5712 6 $1222
5713 4 $1695
5714 7 $1721
5715 6 $1234
5716 7 $1883
5717 1 $1950
5718 7 $1144
5719 6 $1795
5720 4 $1130
5721 6 $1078
5722 7 $1534
5723 4 $1839
5724 2 $1120
5725 5 $1272
5726 6 $1394
5727 1 $1359
5728 3 $1209
5729 1 $1677
5730 3 $1633
5731 2 $1224
5732 1 $1490
5733 4 $1237
5734 1 $1051
5735 2 $1634
5736 2 $1678
5737 4 $1548
5738 3 $1292
5739 3 $1540
5740 5 $1450
5741 2 $1583
5742 2 $1828
5743 3 $1214
5744 6 $1985
5745 6 $1747
5746 3 $1959
5747 4 $1238
5748 4 $1657
5749 1 $1327
5750 7 $1438
5751 3 $1964
5752 2 $1372
5753 6 $1893
5754 6 $1052
5755 7 $1926
5756 6 $1456
5757 1 $1789
5758 7 $1834
5759 3 $1493
5760 6 $1343
5761 1 $1722
5762 7 $1284
5763 6 $1933
5764 6 $1119
5765 6 $1298
5766 5 $1162
5767 7 $1873
5768 5 $1851
5769 5 $1722
5770 5 $1599
5771 7 $1941
5772 2 $1336
5773 3 $1680
5774 6 $1693
5775 4 $1114
5776 1 $1002
5777 7 $1232
5778 2 $1199
5779 1 $1005
5780 1 $1845
5781 7 $1656
5782 1 $1621
5783 5 $1184
5784 7 $1147
5785 1 $1763
5786 6 $1636
5787 1 $1728
5788 6 $1756
5789 1 $1169
5790 7 $1460
5791 4 $1574
5792 6 $1146
5793 5 $1333
5794 7 $1144
5795 6 $1582
5796 5 $1657
5797 1 $1487
5798 4 $1065
5799 7 $1459
5800 4 $1525
5801 1 $1096
5802 6 $1804
5803 7 $1472
5804 1 $1004
5805 6 $1288
5806 2 $1503
5807 6 $1264
5808 2 $1583
5809 3 $1667
5810 6 $1568
5811 7 $1600
5812 7 $1613
5813 4 $1999
5814 7 $1214
5815 3 $1760
5816 6 $1176
5817 5 $1688
5818 1 $1894
5819 3 $1557
5820 5 $1598
5821 4 $1421
5822 4 $1503
5823 2 $1154
5824 2 $1354
5825 5 $1993
5826 7 $1534
5827 1 $1194
5828 1 $1928
5829 6 $1522
5830 7 $1939
5831 5 $1656
5832 1 $1685
5833 6 $1629
5834 1 $1706
5835 1 $1407
5836 4 $1988
5837 5 $1072
5838 3 $1683
5839 2 $1410
5840 5 $1122
5841 4 $1726
5842 6 $1114
5843 2 $1774
5844 7 $1979
5845 6 $1735
5846 7 $1584
5847 3 $1450
5848 6 $1098
5849 5 $1589
5850 6 $1584
5851 1 $1878
5852 1 $1014
5853 5 $1400
5854 2 $1811
5855 6 $1169
5856 5 $1551
5857 4 $1331
5858 7 $1925
5859 7 $1946
5860 3 $1373
5861 7 $1973
5862 3 $1877
5863 3 $1648
5864 7 $1625
5865 3 $1897
5866 1 $1721
5867 1 $1866
5868 1 $1210
5869 6 $1614
5870 3 $1504
5871 1 $1143
5872 7 $1162
5873 7 $1696
5874 3 $1198
5875 2 $1359
5876 4 $1574
5877 6 $1157
5878 7 $1019
5879 3 $1792
5880 6 $1402
5881 1 $1465
5882 2 $1084
5883 7 $1234
5884 7 $1810
5885 3 $1346
5886 2 $1616
5887 4 $1172
5888 1 $1474
5889 2 $1292
5890 3 $1405
5891 1 $1860
5892 6 $1815
5893 2 $1327
5894 6 $1057
5895 1 $1164
5896 3 $1027
5897 6 $1092
5898 6 $1417
5899 5 $1119
5900 1 $1973
5901 1 $1580
5902 7 $1390
5903 3 $1208
5904 1 $1863
5905 6 $1249
5906 4 $1866
5907 2 $1339
5908 2 $1183
5909 5 $1410
5910 3 $1119
5911 3 $1010
5912 5 $1494
5913 1 $1932
5914 2 $1849
5915 6 $1089
5916 6 $1252
5917 2 $1651
5918 6 $1535
5919 7 $1098
5920 6 $1706
5921 3 $1277
5922 4 $1446
5923 5 $1114
5924 5 $1230
5925 1 $1688
5926 7 $1574
5927 6 $1618
5928 5 $1722
5929 7 $1791
5930 2 $1747
5931 6 $1520
5932 1 $1198
5933 2 $1785
5934 2 $1381
5935 4 $1731
5936 4 $1002
5937 1 $1441
5938 3 $1784
5939 3 $1546
5940 4 $1668
5941 1 $1791
5942 6 $1405
5943 5 $1710
5944 5 $1328
5945 4 $1294
5946 3 $1791
5947 3 $1755
5948 3 $1451
5949 7 $1324
5950 1 $1263
5951 3 $1731
5952 1 $1215
5953 6 $1229
5954 6 $1601
5955 3 $1731
5956 3 $1674
5957 5 $1240
5958 7 $1604
5959 5 $1276
5960 1 $1623
5961 3 $1953
5962 2 $1742
5963 6 $1108
5964 3 $1419
5965 5 $1429
5966 3 $1133
5967 2 $1458
5968 6 $1969
5969 4 $1945
5970 6 $1695
5971 5 $1733
5972 1 $1583
5973 4 $1675