1 3.72106 2.36763 1.6563 1.89984 1.45585 0.0819117 3.85827 0.954985 0.221442 1.24906 
0.316563 1 0.636277 0.445115 0.510564 0.391247 0.022013 1.03687 0.256643 0.0595105 0.335674 
0.422364 1.58452 1 0.699562 0.802423 0.614901 0.0345965 1.6296 0.403351 0.149409 0.527559 
0.603755 2.24661 1.42947 1 1.14704 0.87898 0.0494546 2.32945 0.576577 0.133697 0.754127 
0.526361 1.95862 1.24623 0.871811 1 0.797495 0.0766854 2.03084 0.502667 0.142499 0.657457 
0.686882 2.55593 1.62628 1.09561 1.25393 1 0.0562636 2.65018 0.655962 0.152105 0.857957 
12.2083 45.4277 28.9046 20.1784 13.0403 17.7735 1 47.1028 11.6587 2.70343 15.2489 
0.259183 0.964437 0.647342 0.467342 0.536719 0.377333 0.0212301 1 0.247516 0.0573942 0.323736 
1.04714 3.89646 2.47923 1.73437 1.98939 1.52448 0.0908388 4.04014 1 0.23188 1.30794 
4.51585 16.8037 6.69305 7.4796 7.01758 6.57442 0.369901 17.4234 4.31257 1 5.64057 
0.800601 2.97909 1.89552 1.32604 1.52101 1.16556 0.0655786 3.08894 0.764562 0.177287 1 
