3532690 38586507 28575197 26658387 25503107 31180872 25503107 26658387 61836413 38586507 7440288 26658387 20585459 61836413 42184338 
32427061 26658387 3532690 42184338 32427061 20685718 26658387 32527828 32384590 11381237 31180872 7440288 20685718 26658387 26362293 
32384590 32527828 7440288 26658387 32384590 31860788 61836413 26658387 54624929 43477480 26658387 45807690 43477480 26658387 7960990 
43477480 26658387 47858264 43477480 26658387 61938419 43477480 26658387 33371774 15613813 26658387 59441257 7440288 26362293 42184338 
31860788 20685718 7440288 26658387 31180872 26931201 26658387 26362293 38586507 42184338 32427061 7060751 7440288 26658387 32384590 
7293208 26658387 20685718 26362293 38586507 7440288 25503107 31860788 19298669 31180872 26931201 7060751 43477480 26658387 26082724 
32384590 25503107 42184338 26658387 50128342 42184338 20685718 55003178 26658387 